solid OpenSCAD_Model
  facet normal -1 0 0
    outer loop
      vertex -56.3 0 40
      vertex -56.3 6 40
      vertex -56.3 1.77636e-014 -40
    endloop
  endfacet
  facet normal -1 0 0
    outer loop
      vertex -56.3 1.77636e-014 -40
      vertex -56.3 6 40
      vertex -56.3 6 -23
    endloop
  endfacet
  facet normal -1 0 0
    outer loop
      vertex -56.3 1.77636e-014 -40
      vertex -56.3 6 -23
      vertex -56.3 32.5 -23
    endloop
  endfacet
  facet normal -1 0 0
    outer loop
      vertex -56.3 4.5 -40
      vertex -56.3 32.5 -23
      vertex -56.3 32.5 -40
    endloop
  endfacet
  facet normal -1 0 0
    outer loop
      vertex -56.3 1.77636e-014 -40
      vertex -56.3 32.5 -23
      vertex -56.3 4.5 -40
    endloop
  endfacet
  facet normal 0 -2.22045e-016 1
    outer loop
      vertex -56.3 6 40
      vertex -56.3 0 40
      vertex 56.3 0 40
    endloop
  endfacet
  facet normal 0 -2.22045e-016 1
    outer loop
      vertex 56.3 6 40
      vertex -56.3 6 40
      vertex 56.3 0 40
    endloop
  endfacet
  facet normal 0 -1 -2.22045e-016
    outer loop
      vertex -31 8.88178e-015 0
      vertex -56.3 0 40
      vertex -56.3 1.77636e-014 -40
    endloop
  endfacet
  facet normal 0 -1 -2.22045e-016
    outer loop
      vertex 3.24038 1.57275e-014 -30.8302
      vertex -3.24038 1.57275e-014 -30.8302
      vertex -56.3 1.77636e-014 -40
    endloop
  endfacet
  facet normal 0 -1 -2.22045e-016
    outer loop
      vertex -30.3226 1.03129e-014 -6.44526
      vertex -31 8.88178e-015 0
      vertex -56.3 1.77636e-014 -40
    endloop
  endfacet
  facet normal 0 -1 -2.22045e-016
    outer loop
      vertex -30.3226 7.45065e-015 6.44526
      vertex -56.3 0 40
      vertex -31 8.88178e-015 0
    endloop
  endfacet
  facet normal 0 -1 -2.22045e-016
    outer loop
      vertex -28.3199 6.08206e-015 12.6088
      vertex -56.3 0 40
      vertex -30.3226 7.45065e-015 6.44526
    endloop
  endfacet
  facet normal 0 -1 -2.22045e-016
    outer loop
      vertex 25.0795 4.83583e-015 18.2213
      vertex 28.3199 6.08206e-015 12.6088
      vertex 56.3 0 40
    endloop
  endfacet
  facet normal 0 -1 -2.22045e-016
    outer loop
      vertex -25.0795 4.83583e-015 18.2213
      vertex -56.3 0 40
      vertex -28.3199 6.08206e-015 12.6088
    endloop
  endfacet
  facet normal 0 -1 -2.22045e-016
    outer loop
      vertex -20.743 3.76643e-015 23.0375
      vertex -56.3 0 40
      vertex -25.0795 4.83583e-015 18.2213
    endloop
  endfacet
  facet normal 0 -1 -2.22045e-016
    outer loop
      vertex -15.5 2.9206e-015 26.8468
      vertex -56.3 0 40
      vertex -20.743 3.76643e-015 23.0375
    endloop
  endfacet
  facet normal 0 -1 -2.22045e-016
    outer loop
      vertex 9.57953 2.3353e-015 29.4828
      vertex 15.5 2.9206e-015 26.8468
      vertex 56.3 0 40
    endloop
  endfacet
  facet normal 0 -1 -2.22045e-016
    outer loop
      vertex -9.57953 2.3353e-015 29.4828
      vertex -56.3 0 40
      vertex -15.5 2.9206e-015 26.8468
    endloop
  endfacet
  facet normal 0 -1 -2.22045e-016
    outer loop
      vertex -3.24038 2.03611e-015 30.8302
      vertex -56.3 0 40
      vertex -9.57953 2.3353e-015 29.4828
    endloop
  endfacet
  facet normal 0 -1 -2.22045e-016
    outer loop
      vertex 56.3 0 40
      vertex -56.3 0 40
      vertex -3.24038 2.03611e-015 30.8302
    endloop
  endfacet
  facet normal 0 -1 -2.22045e-016
    outer loop
      vertex -15.5 1.4843e-014 -26.8468
      vertex -20.743 1.39971e-014 -23.0375
      vertex -56.3 1.77636e-014 -40
    endloop
  endfacet
  facet normal 0 -1 -2.22045e-016
    outer loop
      vertex -3.24038 1.57275e-014 -30.8302
      vertex -9.57953 1.54283e-014 -29.4828
      vertex -56.3 1.77636e-014 -40
    endloop
  endfacet
  facet normal 0 -1 -2.22045e-016
    outer loop
      vertex 56.3 0 40
      vertex 20.743 3.76643e-015 23.0375
      vertex 25.0795 4.83583e-015 18.2213
    endloop
  endfacet
  facet normal 0 -1 -2.22045e-016
    outer loop
      vertex 56.3 1.77636e-014 -40
      vertex 56.3 0 40
      vertex 28.3199 6.08206e-015 12.6088
    endloop
  endfacet
  facet normal 0 -1 -2.22045e-016
    outer loop
      vertex -25.0795 1.29277e-014 -18.2213
      vertex -28.3199 1.16815e-014 -12.6088
      vertex -56.3 1.77636e-014 -40
    endloop
  endfacet
  facet normal 0 -1 -2.22045e-016
    outer loop
      vertex 56.3 1.77636e-014 -40
      vertex 28.3199 6.08206e-015 12.6088
      vertex 30.3226 7.45065e-015 6.44526
    endloop
  endfacet
  facet normal 0 -1 -2.22045e-016
    outer loop
      vertex 56.3 1.77636e-014 -40
      vertex 30.3226 7.45065e-015 6.44526
      vertex 31 8.88178e-015 0
    endloop
  endfacet
  facet normal 0 -1 -2.22045e-016
    outer loop
      vertex -20.743 1.39971e-014 -23.0375
      vertex -25.0795 1.29277e-014 -18.2213
      vertex -56.3 1.77636e-014 -40
    endloop
  endfacet
  facet normal 0 -1 -2.22045e-016
    outer loop
      vertex 56.3 1.77636e-014 -40
      vertex 31 8.88178e-015 0
      vertex 30.3226 1.03129e-014 -6.44526
    endloop
  endfacet
  facet normal 0 -1 -2.22045e-016
    outer loop
      vertex 56.3 1.77636e-014 -40
      vertex 30.3226 1.03129e-014 -6.44526
      vertex 28.3199 1.16815e-014 -12.6088
    endloop
  endfacet
  facet normal 0 -1 -2.22045e-016
    outer loop
      vertex 56.3 1.77636e-014 -40
      vertex 28.3199 1.16815e-014 -12.6088
      vertex 25.0795 1.29277e-014 -18.2213
    endloop
  endfacet
  facet normal 0 -1 -2.22045e-016
    outer loop
      vertex -9.57953 1.54283e-014 -29.4828
      vertex -15.5 1.4843e-014 -26.8468
      vertex -56.3 1.77636e-014 -40
    endloop
  endfacet
  facet normal 0 -1 -2.22045e-016
    outer loop
      vertex 56.3 1.77636e-014 -40
      vertex 25.0795 1.29277e-014 -18.2213
      vertex 20.743 1.39971e-014 -23.0375
    endloop
  endfacet
  facet normal 0 -1 -2.22045e-016
    outer loop
      vertex 56.3 1.77636e-014 -40
      vertex 20.743 1.39971e-014 -23.0375
      vertex 15.5 1.4843e-014 -26.8468
    endloop
  endfacet
  facet normal 0 -1 -2.22045e-016
    outer loop
      vertex 56.3 1.77636e-014 -40
      vertex 15.5 1.4843e-014 -26.8468
      vertex 9.57953 1.54283e-014 -29.4828
    endloop
  endfacet
  facet normal 0 -1 -2.22045e-016
    outer loop
      vertex 56.3 1.77636e-014 -40
      vertex 3.24038 1.57275e-014 -30.8302
      vertex -56.3 1.77636e-014 -40
    endloop
  endfacet
  facet normal 0 -1 -2.22045e-016
    outer loop
      vertex 56.3 1.77636e-014 -40
      vertex 9.57953 1.54283e-014 -29.4828
      vertex 3.24038 1.57275e-014 -30.8302
    endloop
  endfacet
  facet normal 0 -1 -2.22045e-016
    outer loop
      vertex -28.3199 1.16815e-014 -12.6088
      vertex -30.3226 1.03129e-014 -6.44526
      vertex -56.3 1.77636e-014 -40
    endloop
  endfacet
  facet normal 0 -1 -2.22045e-016
    outer loop
      vertex -3.24038 2.03611e-015 30.8302
      vertex 3.24038 2.03611e-015 30.8302
      vertex 56.3 0 40
    endloop
  endfacet
  facet normal 0 -1 -2.22045e-016
    outer loop
      vertex 3.24038 2.03611e-015 30.8302
      vertex 9.57953 2.3353e-015 29.4828
      vertex 56.3 0 40
    endloop
  endfacet
  facet normal 0 -1 -2.22045e-016
    outer loop
      vertex 15.5 2.9206e-015 26.8468
      vertex 20.743 3.76643e-015 23.0375
      vertex 56.3 0 40
    endloop
  endfacet
  facet normal 0 2.22045e-016 -1
    outer loop
      vertex -56.3 1.77636e-014 -40
      vertex -56.3 4.5 -40
      vertex 56.3 1.77636e-014 -40
    endloop
  endfacet
  facet normal 0 2.22045e-016 -1
    outer loop
      vertex 56.3 1.77636e-014 -40
      vertex -56.3 4.5 -40
      vertex 56.3 4.5 -40
    endloop
  endfacet
  facet normal 0 -1 0
    outer loop
      vertex 56.3 4.5 -40
      vertex -56.3 4.5 -40
      vertex 57.3 4.5 -40
    endloop
  endfacet
  facet normal 0 -1 0
    outer loop
      vertex 57.3 4.5 40
      vertex 56.3 4.5 -40
      vertex 57.3 4.5 -40
    endloop
  endfacet
  facet normal 0 -1 0
    outer loop
      vertex 56.3 4.5 40
      vertex 56.3 4.5 -40
      vertex 57.3 4.5 40
    endloop
  endfacet
  facet normal 0 0 -1
    outer loop
      vertex -35.8 28.0263 -40
      vertex -56.3 32.5 -40
      vertex 57.3 32.5 -40
    endloop
  endfacet
  facet normal 0 0 -1
    outer loop
      vertex -56.3 4.5 -40
      vertex -56.3 32.5 -40
      vertex -52.3 18.5 -40
    endloop
  endfacet
  facet normal 0 0 -1
    outer loop
      vertex -56.3 4.5 -40
      vertex -52.3 18.5 -40
      vertex -46.8 8.97372 -40
    endloop
  endfacet
  facet normal 0 0 -1
    outer loop
      vertex -56.3 4.5 -40
      vertex -46.8 8.97372 -40
      vertex 57.3 4.5 -40
    endloop
  endfacet
  facet normal 0 0 -1
    outer loop
      vertex -46.8 8.97372 -40
      vertex -35.8 8.97372 -40
      vertex 57.3 4.5 -40
    endloop
  endfacet
  facet normal 0 0 -1
    outer loop
      vertex 38.0553 8.51391 -40
      vertex 40.2025 8.05752 -40
      vertex 5.25 9.40673 -40
    endloop
  endfacet
  facet normal 0 0 -1
    outer loop
      vertex -10.5 18.5 -40
      vertex -35.8 28.0263 -40
      vertex -5.25 27.5933 -40
    endloop
  endfacet
  facet normal 0 0 -1
    outer loop
      vertex 5.25 27.5933 -40
      vertex -35.8 28.0263 -40
      vertex 57.3 32.5 -40
    endloop
  endfacet
  facet normal 0 0 -1
    outer loop
      vertex 40.2025 8.05752 -40
      vertex 57.3 4.5 -40
      vertex 5.25 9.40673 -40
    endloop
  endfacet
  facet normal 0 0 -1
    outer loop
      vertex 34.2741 10.697 -40
      vertex 10.5 18.5 -40
      vertex 32.8053 12.3283 -40
    endloop
  endfacet
  facet normal 0 0 -1
    outer loop
      vertex 10.5 18.5 -40
      vertex 38.0553 8.51391 -40
      vertex 5.25 9.40673 -40
    endloop
  endfacet
  facet normal 0 0 -1
    outer loop
      vertex -35.8 8.97372 -40
      vertex -5.25 9.40673 -40
      vertex 57.3 4.5 -40
    endloop
  endfacet
  facet normal 0 0 -1
    outer loop
      vertex -5.25 9.40673 -40
      vertex 5.25 9.40673 -40
      vertex 57.3 4.5 -40
    endloop
  endfacet
  facet normal 0 0 -1
    outer loop
      vertex -5.25 27.5933 -40
      vertex -35.8 28.0263 -40
      vertex 5.25 27.5933 -40
    endloop
  endfacet
  facet normal 0 0 -1
    outer loop
      vertex 40.2025 28.9425 -40
      vertex 5.25 27.5933 -40
      vertex 57.3 32.5 -40
    endloop
  endfacet
  facet normal 0 0 -1
    outer loop
      vertex 31.0294 16.3169 -40
      vertex 10.5 18.5 -40
      vertex 30.8 18.5 -40
    endloop
  endfacet
  facet normal 0 0 -1
    outer loop
      vertex 31.7078 14.2293 -40
      vertex 10.5 18.5 -40
      vertex 31.0294 16.3169 -40
    endloop
  endfacet
  facet normal 0 0 -1
    outer loop
      vertex 32.8053 12.3283 -40
      vertex 10.5 18.5 -40
      vertex 31.7078 14.2293 -40
    endloop
  endfacet
  facet normal 0 0 -1
    outer loop
      vertex 42.3975 8.05752 -40
      vertex 57.3 4.5 -40
      vertex 40.2025 8.05752 -40
    endloop
  endfacet
  facet normal 0 0 -1
    outer loop
      vertex 10.5 18.5 -40
      vertex 34.2741 10.697 -40
      vertex 36.05 9.40673 -40
    endloop
  endfacet
  facet normal 0 0 -1
    outer loop
      vertex 10.5 18.5 -40
      vertex 36.05 9.40673 -40
      vertex 38.0553 8.51391 -40
    endloop
  endfacet
  facet normal 0 0 -1
    outer loop
      vertex 46.55 9.40673 -40
      vertex 57.3 4.5 -40
      vertex 44.5447 8.51391 -40
    endloop
  endfacet
  facet normal 0 0 -1
    outer loop
      vertex 44.5447 8.51391 -40
      vertex 57.3 4.5 -40
      vertex 42.3975 8.05752 -40
    endloop
  endfacet
  facet normal 0 0 -1
    outer loop
      vertex 48.3259 10.697 -40
      vertex 57.3 4.5 -40
      vertex 46.55 9.40673 -40
    endloop
  endfacet
  facet normal 0 0 -1
    outer loop
      vertex 51.8 18.5 -40
      vertex 57.3 32.5 -40
      vertex 51.5705 16.3169 -40
    endloop
  endfacet
  facet normal 0 0 -1
    outer loop
      vertex 57.3 4.5 -40
      vertex 48.3259 10.697 -40
      vertex 49.7947 12.3283 -40
    endloop
  endfacet
  facet normal 0 0 -1
    outer loop
      vertex 57.3 4.5 -40
      vertex 49.7947 12.3283 -40
      vertex 50.8922 14.2293 -40
    endloop
  endfacet
  facet normal 0 0 -1
    outer loop
      vertex 57.3 4.5 -40
      vertex 50.8922 14.2293 -40
      vertex 57.3 32.5 -40
    endloop
  endfacet
  facet normal 0 0 -1
    outer loop
      vertex 50.8922 14.2293 -40
      vertex 51.5705 16.3169 -40
      vertex 57.3 32.5 -40
    endloop
  endfacet
  facet normal 0 0 -1
    outer loop
      vertex 51.5705 20.6831 -40
      vertex 57.3 32.5 -40
      vertex 51.8 18.5 -40
    endloop
  endfacet
  facet normal 0 0 -1
    outer loop
      vertex 46.55 27.5933 -40
      vertex 57.3 32.5 -40
      vertex 48.3259 26.303 -40
    endloop
  endfacet
  facet normal 0 0 -1
    outer loop
      vertex 51.5705 20.6831 -40
      vertex 50.8922 22.7707 -40
      vertex 57.3 32.5 -40
    endloop
  endfacet
  facet normal 0 0 -1
    outer loop
      vertex 50.8922 22.7707 -40
      vertex 49.7947 24.6717 -40
      vertex 57.3 32.5 -40
    endloop
  endfacet
  facet normal 0 0 -1
    outer loop
      vertex 49.7947 24.6717 -40
      vertex 48.3259 26.303 -40
      vertex 57.3 32.5 -40
    endloop
  endfacet
  facet normal 0 0 -1
    outer loop
      vertex 42.3975 28.9425 -40
      vertex 57.3 32.5 -40
      vertex 44.5447 28.4861 -40
    endloop
  endfacet
  facet normal 0 0 -1
    outer loop
      vertex 31.7078 22.7707 -40
      vertex 10.5 18.5 -40
      vertex 32.8053 24.6717 -40
    endloop
  endfacet
  facet normal 0 0 -1
    outer loop
      vertex 46.55 27.5933 -40
      vertex 44.5447 28.4861 -40
      vertex 57.3 32.5 -40
    endloop
  endfacet
  facet normal 0 0 -1
    outer loop
      vertex 32.8053 24.6717 -40
      vertex 10.5 18.5 -40
      vertex 34.2741 26.303 -40
    endloop
  endfacet
  facet normal 0 0 -1
    outer loop
      vertex 38.0553 28.4861 -40
      vertex 5.25 27.5933 -40
      vertex 40.2025 28.9425 -40
    endloop
  endfacet
  facet normal 0 0 -1
    outer loop
      vertex 42.3975 28.9425 -40
      vertex 40.2025 28.9425 -40
      vertex 57.3 32.5 -40
    endloop
  endfacet
  facet normal 0 0 -1
    outer loop
      vertex 10.5 18.5 -40
      vertex 5.25 27.5933 -40
      vertex 38.0553 28.4861 -40
    endloop
  endfacet
  facet normal 0 0 -1
    outer loop
      vertex 10.5 18.5 -40
      vertex 38.0553 28.4861 -40
      vertex 36.05 27.5933 -40
    endloop
  endfacet
  facet normal 0 0 -1
    outer loop
      vertex 10.5 18.5 -40
      vertex 36.05 27.5933 -40
      vertex 34.2741 26.303 -40
    endloop
  endfacet
  facet normal 0 0 -1
    outer loop
      vertex 31.0294 20.6831 -40
      vertex 10.5 18.5 -40
      vertex 31.7078 22.7707 -40
    endloop
  endfacet
  facet normal 0 0 -1
    outer loop
      vertex 30.8 18.5 -40
      vertex 10.5 18.5 -40
      vertex 31.0294 20.6831 -40
    endloop
  endfacet
  facet normal 0 0 -1
    outer loop
      vertex -52.3 18.5 -40
      vertex -56.3 32.5 -40
      vertex -46.8 28.0263 -40
    endloop
  endfacet
  facet normal 0 0 -1
    outer loop
      vertex -30.3 18.5 -40
      vertex -5.25 9.40673 -40
      vertex -35.8 8.97372 -40
    endloop
  endfacet
  facet normal 0 0 -1
    outer loop
      vertex -5.25 9.40673 -40
      vertex -30.3 18.5 -40
      vertex -10.5 18.5 -40
    endloop
  endfacet
  facet normal 0 0 -1
    outer loop
      vertex -35.8 28.0263 -40
      vertex -10.5 18.5 -40
      vertex -30.3 18.5 -40
    endloop
  endfacet
  facet normal 0 0 -1
    outer loop
      vertex -46.8 28.0263 -40
      vertex -56.3 32.5 -40
      vertex -35.8 28.0263 -40
    endloop
  endfacet
  facet normal 0 1 0
    outer loop
      vertex 26.3 32.5 -30
      vertex 57.3 32.5 -40
      vertex -26.3 32.5 -30
    endloop
  endfacet
  facet normal 0 1 0
    outer loop
      vertex -56.3 32.5 -40
      vertex -56.3 32.5 -23
      vertex -26.3 32.5 -30
    endloop
  endfacet
  facet normal 0 1 0
    outer loop
      vertex -56.3 32.5 -40
      vertex -26.3 32.5 -30
      vertex 57.3 32.5 -40
    endloop
  endfacet
  facet normal 0 1 0
    outer loop
      vertex 57.3 32.5 -40
      vertex 26.3 32.5 -30
      vertex 26.3 32.5 -9
    endloop
  endfacet
  facet normal 0 1 0
    outer loop
      vertex 57.3 32.5 -40
      vertex 26.3 32.5 -9
      vertex 52.3 32.5 -9
    endloop
  endfacet
  facet normal 0 1 0
    outer loop
      vertex 57.3 32.5 -40
      vertex 52.3 32.5 -9
      vertex 52.3 32.5 9
    endloop
  endfacet
  facet normal 0 1 0
    outer loop
      vertex 52.3 32.5 9
      vertex 26.3 32.5 9
      vertex 26.3 32.5 40
    endloop
  endfacet
  facet normal 0 1 0
    outer loop
      vertex 52.3 32.5 9
      vertex 26.3 32.5 40
      vertex 57.3 32.5 40
    endloop
  endfacet
  facet normal 0 1 0
    outer loop
      vertex 52.3 32.5 9
      vertex 57.3 32.5 40
      vertex 57.3 32.5 -40
    endloop
  endfacet
  facet normal 0 1 0
    outer loop
      vertex -26.3 32.5 -30
      vertex -56.3 32.5 -23
      vertex -26.3 32.5 -23
    endloop
  endfacet
  facet normal 0 0 1
    outer loop
      vertex -46.8 8.97372 -23
      vertex -56.3 6 -23
      vertex -26.3 6 -23
    endloop
  endfacet
  facet normal 0 0 1
    outer loop
      vertex -35.8 8.97372 -23
      vertex -46.8 8.97372 -23
      vertex -26.3 6 -23
    endloop
  endfacet
  facet normal 0 0 1
    outer loop
      vertex -52.3 18.5 -23
      vertex -56.3 6 -23
      vertex -46.8 8.97372 -23
    endloop
  endfacet
  facet normal 0 0 1
    outer loop
      vertex -56.3 32.5 -23
      vertex -56.3 6 -23
      vertex -52.3 18.5 -23
    endloop
  endfacet
  facet normal 0 0 1
    outer loop
      vertex -26.3 32.5 -23
      vertex -56.3 32.5 -23
      vertex -46.8 28.0263 -23
    endloop
  endfacet
  facet normal 0 0 1
    outer loop
      vertex -26.3 32.5 -23
      vertex -46.8 28.0263 -23
      vertex -35.8 28.0263 -23
    endloop
  endfacet
  facet normal 0 0 1
    outer loop
      vertex -26.3 32.5 -23
      vertex -30.3 18.5 -23
      vertex -26.3 6 -23
    endloop
  endfacet
  facet normal 0 0 1
    outer loop
      vertex -26.3 32.5 -23
      vertex -35.8 28.0263 -23
      vertex -30.3 18.5 -23
    endloop
  endfacet
  facet normal 0 0 1
    outer loop
      vertex -30.3 18.5 -23
      vertex -35.8 8.97372 -23
      vertex -26.3 6 -23
    endloop
  endfacet
  facet normal 0 0 1
    outer loop
      vertex -52.3 18.5 -23
      vertex -46.8 28.0263 -23
      vertex -56.3 32.5 -23
    endloop
  endfacet
  facet normal 0 1 2.22045e-016
    outer loop
      vertex 25.0795 6 18.2213
      vertex 20.743 6 23.0375
      vertex 26.3 6 40
    endloop
  endfacet
  facet normal 0 1 2.22045e-016
    outer loop
      vertex 26.3 6 16.1074
      vertex 25.0795 6 18.2213
      vertex 26.3 6 40
    endloop
  endfacet
  facet normal 0 1 2.22045e-016
    outer loop
      vertex -56.3 6 40
      vertex 56.3 6 40
      vertex 26.3 6 40
    endloop
  endfacet
  facet normal 0 1 2.22045e-016
    outer loop
      vertex -3.24038 6 30.8302
      vertex -56.3 6 40
      vertex 3.24038 6 30.8302
    endloop
  endfacet
  facet normal 0 1 2.22045e-016
    outer loop
      vertex 9.57953 6 29.4828
      vertex 26.3 6 40
      vertex 15.5 6 26.8468
    endloop
  endfacet
  facet normal 0 1 2.22045e-016
    outer loop
      vertex -26.3 6 -23
      vertex -15.5 6 -26.8468
      vertex -9.57953 6 -29.4828
    endloop
  endfacet
  facet normal 0 1 2.22045e-016
    outer loop
      vertex -9.57953 6 -29.4828
      vertex -7.14607 6 -30
      vertex -26.3 6 -30
    endloop
  endfacet
  facet normal 0 1 2.22045e-016
    outer loop
      vertex -26.3 6 -23
      vertex -9.57953 6 -29.4828
      vertex -26.3 6 -30
    endloop
  endfacet
  facet normal 0 1 2.22045e-016
    outer loop
      vertex 26.3 6 40
      vertex 20.743 6 23.0375
      vertex 15.5 6 26.8468
    endloop
  endfacet
  facet normal 0 1 2.22045e-016
    outer loop
      vertex 3.24038 6 30.8302
      vertex 26.3 6 40
      vertex 9.57953 6 29.4828
    endloop
  endfacet
  facet normal 0 1 2.22045e-016
    outer loop
      vertex -56.3 6 40
      vertex 26.3 6 40
      vertex 3.24038 6 30.8302
    endloop
  endfacet
  facet normal 0 1 2.22045e-016
    outer loop
      vertex -28.3199 6 12.6088
      vertex -56.3 6 -23
      vertex -25.0795 6 18.2213
    endloop
  endfacet
  facet normal 0 1 2.22045e-016
    outer loop
      vertex -56.3 6 40
      vertex -3.24038 6 30.8302
      vertex -9.57953 6 29.4828
    endloop
  endfacet
  facet normal 0 1 2.22045e-016
    outer loop
      vertex -56.3 6 40
      vertex -9.57953 6 29.4828
      vertex -15.5 6 26.8468
    endloop
  endfacet
  facet normal 0 1 2.22045e-016
    outer loop
      vertex -56.3 6 40
      vertex -15.5 6 26.8468
      vertex -20.743 6 23.0375
    endloop
  endfacet
  facet normal 0 1 2.22045e-016
    outer loop
      vertex -56.3 6 40
      vertex -20.743 6 23.0375
      vertex -25.0795 6 18.2213
    endloop
  endfacet
  facet normal 0 1 2.22045e-016
    outer loop
      vertex -56.3 6 40
      vertex -25.0795 6 18.2213
      vertex -56.3 6 -23
    endloop
  endfacet
  facet normal 0 1 2.22045e-016
    outer loop
      vertex -30.3226 6 6.44526
      vertex -56.3 6 -23
      vertex -28.3199 6 12.6088
    endloop
  endfacet
  facet normal 0 1 2.22045e-016
    outer loop
      vertex -31 6 1.33227e-015
      vertex -56.3 6 -23
      vertex -30.3226 6 6.44526
    endloop
  endfacet
  facet normal 0 1 2.22045e-016
    outer loop
      vertex -30.3226 6 -6.44526
      vertex -56.3 6 -23
      vertex -31 6 1.33227e-015
    endloop
  endfacet
  facet normal 0 1 2.22045e-016
    outer loop
      vertex -28.3199 6 -12.6088
      vertex -56.3 6 -23
      vertex -30.3226 6 -6.44526
    endloop
  endfacet
  facet normal 0 1 2.22045e-016
    outer loop
      vertex -26.3 6 -23
      vertex -20.743 6 -23.0375
      vertex -15.5 6 -26.8468
    endloop
  endfacet
  facet normal 0 1 2.22045e-016
    outer loop
      vertex -56.3 6 -23
      vertex -28.3199 6 -12.6088
      vertex -25.0795 6 -18.2213
    endloop
  endfacet
  facet normal 0 1 2.22045e-016
    outer loop
      vertex -25.0795 6 -18.2213
      vertex -20.743 6 -23.0375
      vertex -26.3 6 -23
    endloop
  endfacet
  facet normal 0 1 2.22045e-016
    outer loop
      vertex -25.0795 6 -18.2213
      vertex -26.3 6 -23
      vertex -56.3 6 -23
    endloop
  endfacet
  facet normal 1 0 0
    outer loop
      vertex 56.3 4.5 40
      vertex 56.3 0 40
      vertex 56.3 1.77636e-014 -40
    endloop
  endfacet
  facet normal 1 0 0
    outer loop
      vertex 56.3 6 40
      vertex 56.3 0 40
      vertex 56.3 4.5 40
    endloop
  endfacet
  facet normal 1 0 0
    outer loop
      vertex 56.3 4.5 -40
      vertex 56.3 4.5 40
      vertex 56.3 1.77636e-014 -40
    endloop
  endfacet
  facet normal 0.994522 -2.321e-017 0.104528
    outer loop
      vertex -30.3226 1.03129e-014 -6.44526
      vertex -30.3226 6 -6.44526
      vertex -31 6 1.33227e-015
    endloop
  endfacet
  facet normal 0.994522 -2.321e-017 0.104528
    outer loop
      vertex -31 8.88178e-015 0
      vertex -30.3226 1.03129e-014 -6.44526
      vertex -31 6 1.33227e-015
    endloop
  endfacet
  facet normal 0.994522 2.321e-017 -0.104528
    outer loop
      vertex -31 6 1.33227e-015
      vertex -30.3226 6 6.44526
      vertex -30.3226 7.45065e-015 6.44526
    endloop
  endfacet
  facet normal 0.994522 2.321e-017 -0.104528
    outer loop
      vertex -31 8.88178e-015 0
      vertex -31 6 1.33227e-015
      vertex -30.3226 7.45065e-015 6.44526
    endloop
  endfacet
  facet normal 0.951056 -6.86156e-017 0.309017
    outer loop
      vertex -28.3199 1.16815e-014 -12.6088
      vertex -28.3199 6 -12.6088
      vertex -30.3226 6 -6.44526
    endloop
  endfacet
  facet normal 0.951056 -6.86156e-017 0.309017
    outer loop
      vertex -30.3226 1.03129e-014 -6.44526
      vertex -28.3199 1.16815e-014 -12.6088
      vertex -30.3226 6 -6.44526
    endloop
  endfacet
  facet normal 0.866025 -1.11022e-016 0.5
    outer loop
      vertex -25.0795 1.29277e-014 -18.2213
      vertex -25.0795 6 -18.2213
      vertex -28.3199 6 -12.6088
    endloop
  endfacet
  facet normal 0.866025 -1.11022e-016 0.5
    outer loop
      vertex -28.3199 1.16815e-014 -12.6088
      vertex -25.0795 1.29277e-014 -18.2213
      vertex -28.3199 6 -12.6088
    endloop
  endfacet
  facet normal 0.743145 -1.48577e-016 0.669131
    outer loop
      vertex -20.743 1.39971e-014 -23.0375
      vertex -20.743 6 -23.0375
      vertex -25.0795 6 -18.2213
    endloop
  endfacet
  facet normal 0.743145 -1.48577e-016 0.669131
    outer loop
      vertex -25.0795 1.29277e-014 -18.2213
      vertex -20.743 1.39971e-014 -23.0375
      vertex -25.0795 6 -18.2213
    endloop
  endfacet
  facet normal 0.587785 -1.79638e-016 0.809017
    outer loop
      vertex -15.5 1.4843e-014 -26.8468
      vertex -15.5 6 -26.8468
      vertex -20.743 6 -23.0375
    endloop
  endfacet
  facet normal 0.587785 -1.79638e-016 0.809017
    outer loop
      vertex -20.743 1.39971e-014 -23.0375
      vertex -15.5 1.4843e-014 -26.8468
      vertex -20.743 6 -23.0375
    endloop
  endfacet
  facet normal 0.406737 -2.02848e-016 0.913545
    outer loop
      vertex -9.57953 1.54283e-014 -29.4828
      vertex -9.57953 6 -29.4828
      vertex -15.5 6 -26.8468
    endloop
  endfacet
  facet normal 0.406737 -2.02848e-016 0.913545
    outer loop
      vertex -15.5 1.4843e-014 -26.8468
      vertex -9.57953 1.54283e-014 -29.4828
      vertex -15.5 6 -26.8468
    endloop
  endfacet
  facet normal 0.207912 -2.17192e-016 0.978148
    outer loop
      vertex -3.24038 1.57275e-014 -30.8302
      vertex -3.24038 4.5 -30.8302
      vertex -7.14607 4.5 -30
    endloop
  endfacet
  facet normal 0.207912 -2.17192e-016 0.978148
    outer loop
      vertex -9.57953 6 -29.4828
      vertex -3.24038 1.57275e-014 -30.8302
      vertex -7.14607 4.5 -30
    endloop
  endfacet
  facet normal 0.207912 -2.17192e-016 0.978148
    outer loop
      vertex -7.14607 6 -30
      vertex -9.57953 6 -29.4828
      vertex -7.14607 4.5 -30
    endloop
  endfacet
  facet normal 0.207912 -2.17192e-016 0.978148
    outer loop
      vertex -9.57953 6 -29.4828
      vertex -9.57953 1.54283e-014 -29.4828
      vertex -3.24038 1.57275e-014 -30.8302
    endloop
  endfacet
  facet normal 0 -2.22045e-016 1
    outer loop
      vertex 3.24038 1.57275e-014 -30.8302
      vertex 3.24038 4.5 -30.8302
      vertex -3.24038 4.5 -30.8302
    endloop
  endfacet
  facet normal 0 -2.22045e-016 1
    outer loop
      vertex -3.24038 1.57275e-014 -30.8302
      vertex 3.24038 1.57275e-014 -30.8302
      vertex -3.24038 4.5 -30.8302
    endloop
  endfacet
  facet normal -0.207912 -2.17192e-016 0.978148
    outer loop
      vertex 9.57953 1.54283e-014 -29.4828
      vertex 9.57953 6 -29.4828
      vertex 7.14607 6 -30
    endloop
  endfacet
  facet normal -0.207912 -2.17192e-016 0.978148
    outer loop
      vertex 3.24038 4.5 -30.8302
      vertex 9.57953 1.54283e-014 -29.4828
      vertex 7.14607 4.5 -30
    endloop
  endfacet
  facet normal -0.207912 -2.17192e-016 0.978148
    outer loop
      vertex 7.14607 4.5 -30
      vertex 9.57953 1.54283e-014 -29.4828
      vertex 7.14607 6 -30
    endloop
  endfacet
  facet normal -0.207912 -2.17192e-016 0.978148
    outer loop
      vertex 3.24038 1.57275e-014 -30.8302
      vertex 9.57953 1.54283e-014 -29.4828
      vertex 3.24038 4.5 -30.8302
    endloop
  endfacet
  facet normal -0.406737 -2.02848e-016 0.913545
    outer loop
      vertex 15.5 1.4843e-014 -26.8468
      vertex 15.5 6 -26.8468
      vertex 9.57953 6 -29.4828
    endloop
  endfacet
  facet normal -0.406737 -2.02848e-016 0.913545
    outer loop
      vertex 9.57953 1.54283e-014 -29.4828
      vertex 15.5 1.4843e-014 -26.8468
      vertex 9.57953 6 -29.4828
    endloop
  endfacet
  facet normal -0.587785 -1.79638e-016 0.809017
    outer loop
      vertex 20.743 1.39971e-014 -23.0375
      vertex 20.743 6 -23.0375
      vertex 15.5 6 -26.8468
    endloop
  endfacet
  facet normal -0.587785 -1.79638e-016 0.809017
    outer loop
      vertex 15.5 1.4843e-014 -26.8468
      vertex 20.743 1.39971e-014 -23.0375
      vertex 15.5 6 -26.8468
    endloop
  endfacet
  facet normal -0.743145 -1.48577e-016 0.669131
    outer loop
      vertex 25.0795 6 -18.2213
      vertex 20.743 6 -23.0375
      vertex 25.0795 1.29277e-014 -18.2213
    endloop
  endfacet
  facet normal -0.743145 -1.48577e-016 0.669131
    outer loop
      vertex 25.0795 1.29277e-014 -18.2213
      vertex 20.743 6 -23.0375
      vertex 20.743 1.39971e-014 -23.0375
    endloop
  endfacet
  facet normal -0.866025 -1.11022e-016 0.5
    outer loop
      vertex 28.3199 4.5 -12.6088
      vertex 26.3 4.5 -16.1074
      vertex 28.3199 1.16815e-014 -12.6088
    endloop
  endfacet
  facet normal -0.866025 -1.11022e-016 0.5
    outer loop
      vertex 25.0795 6 -18.2213
      vertex 26.3 4.5 -16.1074
      vertex 26.3 6 -16.1074
    endloop
  endfacet
  facet normal -0.866025 -1.11022e-016 0.5
    outer loop
      vertex 28.3199 1.16815e-014 -12.6088
      vertex 26.3 4.5 -16.1074
      vertex 25.0795 6 -18.2213
    endloop
  endfacet
  facet normal -0.866025 -1.11022e-016 0.5
    outer loop
      vertex 28.3199 1.16815e-014 -12.6088
      vertex 25.0795 6 -18.2213
      vertex 25.0795 1.29277e-014 -18.2213
    endloop
  endfacet
  facet normal -0.951056 -6.86156e-017 0.309017
    outer loop
      vertex 30.3226 6 -6.44526
      vertex 29.4925 6 -9
      vertex 30.3226 1.03129e-014 -6.44526
    endloop
  endfacet
  facet normal -0.951056 -6.86156e-017 0.309017
    outer loop
      vertex 30.3226 1.03129e-014 -6.44526
      vertex 29.4925 6 -9
      vertex 29.4925 4.5 -9
    endloop
  endfacet
  facet normal -0.951056 -6.86156e-017 0.309017
    outer loop
      vertex 30.3226 1.03129e-014 -6.44526
      vertex 29.4925 4.5 -9
      vertex 28.3199 4.5 -12.6088
    endloop
  endfacet
  facet normal -0.951056 -6.86156e-017 0.309017
    outer loop
      vertex 30.3226 1.03129e-014 -6.44526
      vertex 28.3199 4.5 -12.6088
      vertex 28.3199 1.16815e-014 -12.6088
    endloop
  endfacet
  facet normal -0.994522 -2.321e-017 0.104528
    outer loop
      vertex 31 6 1.33227e-015
      vertex 30.3226 6 -6.44526
      vertex 31 8.88178e-015 0
    endloop
  endfacet
  facet normal -0.994522 -2.321e-017 0.104528
    outer loop
      vertex 31 8.88178e-015 0
      vertex 30.3226 6 -6.44526
      vertex 30.3226 1.03129e-014 -6.44526
    endloop
  endfacet
  facet normal -0.994522 2.321e-017 -0.104528
    outer loop
      vertex 31 6 1.33227e-015
      vertex 31 8.88178e-015 0
      vertex 30.3226 6 6.44526
    endloop
  endfacet
  facet normal -0.994522 2.321e-017 -0.104528
    outer loop
      vertex 30.3226 6 6.44526
      vertex 31 8.88178e-015 0
      vertex 30.3226 7.45065e-015 6.44526
    endloop
  endfacet
  facet normal -0.951056 6.86156e-017 -0.309017
    outer loop
      vertex 29.4925 4.5 9
      vertex 29.4925 6 9
      vertex 30.3226 6 6.44526
    endloop
  endfacet
  facet normal -0.951056 6.86156e-017 -0.309017
    outer loop
      vertex 29.4925 4.5 9
      vertex 30.3226 6 6.44526
      vertex 30.3226 7.45065e-015 6.44526
    endloop
  endfacet
  facet normal -0.951056 6.86156e-017 -0.309017
    outer loop
      vertex 29.4925 4.5 9
      vertex 30.3226 7.45065e-015 6.44526
      vertex 28.3199 4.5 12.6088
    endloop
  endfacet
  facet normal -0.951056 6.86156e-017 -0.309017
    outer loop
      vertex 30.3226 7.45065e-015 6.44526
      vertex 28.3199 6.08206e-015 12.6088
      vertex 28.3199 4.5 12.6088
    endloop
  endfacet
  facet normal -0.866025 1.11022e-016 -0.5
    outer loop
      vertex 26.3 6 16.1074
      vertex 26.3 4.5 16.1074
      vertex 25.0795 6 18.2213
    endloop
  endfacet
  facet normal -0.866025 1.11022e-016 -0.5
    outer loop
      vertex 28.3199 6.08206e-015 12.6088
      vertex 26.3 4.5 16.1074
      vertex 28.3199 4.5 12.6088
    endloop
  endfacet
  facet normal -0.866025 1.11022e-016 -0.5
    outer loop
      vertex 25.0795 6 18.2213
      vertex 26.3 4.5 16.1074
      vertex 28.3199 6.08206e-015 12.6088
    endloop
  endfacet
  facet normal -0.866025 1.11022e-016 -0.5
    outer loop
      vertex 25.0795 6 18.2213
      vertex 28.3199 6.08206e-015 12.6088
      vertex 25.0795 4.83583e-015 18.2213
    endloop
  endfacet
  facet normal -0.743145 1.48577e-016 -0.669131
    outer loop
      vertex 25.0795 6 18.2213
      vertex 25.0795 4.83583e-015 18.2213
      vertex 20.743 6 23.0375
    endloop
  endfacet
  facet normal -0.743145 1.48577e-016 -0.669131
    outer loop
      vertex 20.743 6 23.0375
      vertex 25.0795 4.83583e-015 18.2213
      vertex 20.743 3.76643e-015 23.0375
    endloop
  endfacet
  facet normal -0.587785 1.79638e-016 -0.809017
    outer loop
      vertex 20.743 6 23.0375
      vertex 20.743 3.76643e-015 23.0375
      vertex 15.5 6 26.8468
    endloop
  endfacet
  facet normal -0.587785 1.79638e-016 -0.809017
    outer loop
      vertex 15.5 6 26.8468
      vertex 20.743 3.76643e-015 23.0375
      vertex 15.5 2.9206e-015 26.8468
    endloop
  endfacet
  facet normal -0.406737 2.02848e-016 -0.913545
    outer loop
      vertex 15.5 6 26.8468
      vertex 15.5 2.9206e-015 26.8468
      vertex 9.57953 6 29.4828
    endloop
  endfacet
  facet normal -0.406737 2.02848e-016 -0.913545
    outer loop
      vertex 9.57953 6 29.4828
      vertex 15.5 2.9206e-015 26.8468
      vertex 9.57953 2.3353e-015 29.4828
    endloop
  endfacet
  facet normal -0.207912 2.17192e-016 -0.978148
    outer loop
      vertex 9.57953 6 29.4828
      vertex 9.57953 2.3353e-015 29.4828
      vertex 3.24038 6 30.8302
    endloop
  endfacet
  facet normal -0.207912 2.17192e-016 -0.978148
    outer loop
      vertex 3.24038 6 30.8302
      vertex 9.57953 2.3353e-015 29.4828
      vertex 3.24038 2.03611e-015 30.8302
    endloop
  endfacet
  facet normal 0 2.22045e-016 -1
    outer loop
      vertex 3.24038 6 30.8302
      vertex 3.24038 2.03611e-015 30.8302
      vertex -3.24038 6 30.8302
    endloop
  endfacet
  facet normal 0 2.22045e-016 -1
    outer loop
      vertex -3.24038 6 30.8302
      vertex 3.24038 2.03611e-015 30.8302
      vertex -3.24038 2.03611e-015 30.8302
    endloop
  endfacet
  facet normal 0.207912 2.17192e-016 -0.978148
    outer loop
      vertex -3.24038 6 30.8302
      vertex -3.24038 2.03611e-015 30.8302
      vertex -9.57953 6 29.4828
    endloop
  endfacet
  facet normal 0.207912 2.17192e-016 -0.978148
    outer loop
      vertex -9.57953 6 29.4828
      vertex -3.24038 2.03611e-015 30.8302
      vertex -9.57953 2.3353e-015 29.4828
    endloop
  endfacet
  facet normal 0.406737 2.02848e-016 -0.913545
    outer loop
      vertex -9.57953 6 29.4828
      vertex -9.57953 2.3353e-015 29.4828
      vertex -15.5 6 26.8468
    endloop
  endfacet
  facet normal 0.406737 2.02848e-016 -0.913545
    outer loop
      vertex -15.5 6 26.8468
      vertex -9.57953 2.3353e-015 29.4828
      vertex -15.5 2.9206e-015 26.8468
    endloop
  endfacet
  facet normal 0.587785 1.79638e-016 -0.809017
    outer loop
      vertex -15.5 6 26.8468
      vertex -15.5 2.9206e-015 26.8468
      vertex -20.743 6 23.0375
    endloop
  endfacet
  facet normal 0.587785 1.79638e-016 -0.809017
    outer loop
      vertex -20.743 6 23.0375
      vertex -15.5 2.9206e-015 26.8468
      vertex -20.743 3.76643e-015 23.0375
    endloop
  endfacet
  facet normal 0.743145 1.48577e-016 -0.669131
    outer loop
      vertex -25.0795 6 18.2213
      vertex -20.743 6 23.0375
      vertex -20.743 3.76643e-015 23.0375
    endloop
  endfacet
  facet normal 0.743145 1.48577e-016 -0.669131
    outer loop
      vertex -25.0795 4.83583e-015 18.2213
      vertex -25.0795 6 18.2213
      vertex -20.743 3.76643e-015 23.0375
    endloop
  endfacet
  facet normal 0.866025 1.11022e-016 -0.5
    outer loop
      vertex -28.3199 6 12.6088
      vertex -25.0795 6 18.2213
      vertex -25.0795 4.83583e-015 18.2213
    endloop
  endfacet
  facet normal 0.866025 1.11022e-016 -0.5
    outer loop
      vertex -28.3199 6.08206e-015 12.6088
      vertex -28.3199 6 12.6088
      vertex -25.0795 4.83583e-015 18.2213
    endloop
  endfacet
  facet normal 0.951056 6.86156e-017 -0.309017
    outer loop
      vertex -30.3226 6 6.44526
      vertex -28.3199 6 12.6088
      vertex -28.3199 6.08206e-015 12.6088
    endloop
  endfacet
  facet normal 0.951056 6.86156e-017 -0.309017
    outer loop
      vertex -30.3226 7.45065e-015 6.44526
      vertex -30.3226 6 6.44526
      vertex -28.3199 6.08206e-015 12.6088
    endloop
  endfacet
  facet normal 0 0 1
    outer loop
      vertex 42.3975 8.05752 40
      vertex 26.3 6 40
      vertex 56.3 6 40
    endloop
  endfacet
  facet normal 0 0 1
    outer loop
      vertex 56.3 4.5 40
      vertex 57.3 4.5 40
      vertex 56.3 6 40
    endloop
  endfacet
  facet normal 0 0 1
    outer loop
      vertex 57.3 4.5 40
      vertex 57.3 32.5 40
      vertex 56.3 6 40
    endloop
  endfacet
  facet normal 0 0 1
    outer loop
      vertex 42.3975 8.05752 40
      vertex 40.2025 8.05752 40
      vertex 26.3 6 40
    endloop
  endfacet
  facet normal 0 0 1
    outer loop
      vertex 26.3 32.5 40
      vertex 26.3 6 40
      vertex 31.0294 16.3169 40
    endloop
  endfacet
  facet normal 0 0 1
    outer loop
      vertex 26.3 32.5 40
      vertex 31.0294 16.3169 40
      vertex 30.8 18.5 40
    endloop
  endfacet
  facet normal 0 0 1
    outer loop
      vertex 26.3 32.5 40
      vertex 30.8 18.5 40
      vertex 31.0294 20.6831 40
    endloop
  endfacet
  facet normal 0 0 1
    outer loop
      vertex 26.3 32.5 40
      vertex 31.0294 20.6831 40
      vertex 31.7078 22.7707 40
    endloop
  endfacet
  facet normal 0 0 1
    outer loop
      vertex 26.3 32.5 40
      vertex 31.7078 22.7707 40
      vertex 32.8053 24.6717 40
    endloop
  endfacet
  facet normal 0 0 1
    outer loop
      vertex 48.3259 10.697 40
      vertex 46.55 9.40673 40
      vertex 56.3 6 40
    endloop
  endfacet
  facet normal 0 0 1
    outer loop
      vertex 36.05 27.5933 40
      vertex 26.3 32.5 40
      vertex 34.2741 26.303 40
    endloop
  endfacet
  facet normal 0 0 1
    outer loop
      vertex 38.0553 28.4861 40
      vertex 26.3 32.5 40
      vertex 36.05 27.5933 40
    endloop
  endfacet
  facet normal 0 0 1
    outer loop
      vertex 42.3975 28.9425 40
      vertex 44.5447 28.4861 40
      vertex 57.3 32.5 40
    endloop
  endfacet
  facet normal 0 0 1
    outer loop
      vertex 40.2025 28.9425 40
      vertex 26.3 32.5 40
      vertex 38.0553 28.4861 40
    endloop
  endfacet
  facet normal 0 0 1
    outer loop
      vertex 51.5705 20.6831 40
      vertex 51.8 18.5 40
      vertex 56.3 6 40
    endloop
  endfacet
  facet normal 0 0 1
    outer loop
      vertex 57.3 32.5 40
      vertex 26.3 32.5 40
      vertex 40.2025 28.9425 40
    endloop
  endfacet
  facet normal 0 0 1
    outer loop
      vertex 51.5705 16.3169 40
      vertex 50.8922 14.2293 40
      vertex 56.3 6 40
    endloop
  endfacet
  facet normal 0 0 1
    outer loop
      vertex 57.3 32.5 40
      vertex 44.5447 28.4861 40
      vertex 46.55 27.5933 40
    endloop
  endfacet
  facet normal 0 0 1
    outer loop
      vertex 57.3 32.5 40
      vertex 46.55 27.5933 40
      vertex 48.3259 26.303 40
    endloop
  endfacet
  facet normal 0 0 1
    outer loop
      vertex 57.3 32.5 40
      vertex 48.3259 26.303 40
      vertex 49.7947 24.6717 40
    endloop
  endfacet
  facet normal 0 0 1
    outer loop
      vertex 51.8 18.5 40
      vertex 51.5705 16.3169 40
      vertex 56.3 6 40
    endloop
  endfacet
  facet normal 0 0 1
    outer loop
      vertex 57.3 32.5 40
      vertex 49.7947 24.6717 40
      vertex 50.8922 22.7707 40
    endloop
  endfacet
  facet normal 0 0 1
    outer loop
      vertex 57.3 32.5 40
      vertex 51.5705 20.6831 40
      vertex 56.3 6 40
    endloop
  endfacet
  facet normal 0 0 1
    outer loop
      vertex 57.3 32.5 40
      vertex 50.8922 22.7707 40
      vertex 51.5705 20.6831 40
    endloop
  endfacet
  facet normal 0 0 1
    outer loop
      vertex 50.8922 14.2293 40
      vertex 49.7947 12.3283 40
      vertex 56.3 6 40
    endloop
  endfacet
  facet normal 0 0 1
    outer loop
      vertex 46.55 9.40673 40
      vertex 44.5447 8.51391 40
      vertex 56.3 6 40
    endloop
  endfacet
  facet normal 0 0 1
    outer loop
      vertex 44.5447 8.51391 40
      vertex 42.3975 8.05752 40
      vertex 56.3 6 40
    endloop
  endfacet
  facet normal 0 0 1
    outer loop
      vertex 40.2025 8.05752 40
      vertex 38.0553 8.51391 40
      vertex 26.3 6 40
    endloop
  endfacet
  facet normal 0 0 1
    outer loop
      vertex 36.05 9.40673 40
      vertex 26.3 6 40
      vertex 38.0553 8.51391 40
    endloop
  endfacet
  facet normal 0 0 1
    outer loop
      vertex 34.2741 10.697 40
      vertex 26.3 6 40
      vertex 36.05 9.40673 40
    endloop
  endfacet
  facet normal 0 0 1
    outer loop
      vertex 32.8053 12.3283 40
      vertex 26.3 6 40
      vertex 34.2741 10.697 40
    endloop
  endfacet
  facet normal 0 0 1
    outer loop
      vertex 31.7078 14.2293 40
      vertex 26.3 6 40
      vertex 32.8053 12.3283 40
    endloop
  endfacet
  facet normal 0 0 1
    outer loop
      vertex 31.0294 16.3169 40
      vertex 26.3 6 40
      vertex 31.7078 14.2293 40
    endloop
  endfacet
  facet normal 0 0 1
    outer loop
      vertex 32.8053 24.6717 40
      vertex 34.2741 26.303 40
      vertex 26.3 32.5 40
    endloop
  endfacet
  facet normal 0 0 1
    outer loop
      vertex 40.2025 28.9425 40
      vertex 42.3975 28.9425 40
      vertex 57.3 32.5 40
    endloop
  endfacet
  facet normal 0 0 1
    outer loop
      vertex 49.7947 12.3283 40
      vertex 48.3259 10.697 40
      vertex 56.3 6 40
    endloop
  endfacet
  facet normal 1 0 0
    outer loop
      vertex 57.3 4.5 40
      vertex 57.3 4.5 -40
      vertex 57.3 32.5 -40
    endloop
  endfacet
  facet normal 1 0 0
    outer loop
      vertex 57.3 32.5 40
      vertex 57.3 4.5 40
      vertex 57.3 32.5 -40
    endloop
  endfacet
  facet normal 0.866025 -0.5 0
    outer loop
      vertex -46.8 28.0263 -40
      vertex -46.8 28.0263 -23
      vertex -52.3 18.5 -23
    endloop
  endfacet
  facet normal 0.866025 -0.5 0
    outer loop
      vertex -52.3 18.5 -40
      vertex -46.8 28.0263 -40
      vertex -52.3 18.5 -23
    endloop
  endfacet
  facet normal 0.866025 0.5 0
    outer loop
      vertex -52.3 18.5 -23
      vertex -46.8 8.97372 -23
      vertex -46.8 8.97372 -40
    endloop
  endfacet
  facet normal 0.866025 0.5 0
    outer loop
      vertex -52.3 18.5 -40
      vertex -52.3 18.5 -23
      vertex -46.8 8.97372 -40
    endloop
  endfacet
  facet normal 0 -1 0
    outer loop
      vertex -35.8 28.0263 -40
      vertex -35.8 28.0263 -23
      vertex -46.8 28.0263 -23
    endloop
  endfacet
  facet normal 0 -1 0
    outer loop
      vertex -46.8 28.0263 -40
      vertex -35.8 28.0263 -40
      vertex -46.8 28.0263 -23
    endloop
  endfacet
  facet normal -0.866025 -0.5 0
    outer loop
      vertex -30.3 18.5 -23
      vertex -35.8 28.0263 -23
      vertex -30.3 18.5 -40
    endloop
  endfacet
  facet normal -0.866025 -0.5 0
    outer loop
      vertex -30.3 18.5 -40
      vertex -35.8 28.0263 -23
      vertex -35.8 28.0263 -40
    endloop
  endfacet
  facet normal -0.866025 0.5 0
    outer loop
      vertex -30.3 18.5 -23
      vertex -30.3 18.5 -40
      vertex -35.8 8.97372 -23
    endloop
  endfacet
  facet normal -0.866025 0.5 0
    outer loop
      vertex -35.8 8.97372 -23
      vertex -30.3 18.5 -40
      vertex -35.8 8.97372 -40
    endloop
  endfacet
  facet normal 0 1 0
    outer loop
      vertex -35.8 8.97372 -23
      vertex -35.8 8.97372 -40
      vertex -46.8 8.97372 -23
    endloop
  endfacet
  facet normal 0 1 0
    outer loop
      vertex -46.8 8.97372 -23
      vertex -35.8 8.97372 -40
      vertex -46.8 8.97372 -40
    endloop
  endfacet
  facet normal 0.866025 -0.5 0
    outer loop
      vertex -5.25 27.5933 -40
      vertex -5.25 27.5933 -30
      vertex -10.5 18.5 -30
    endloop
  endfacet
  facet normal 0.866025 -0.5 0
    outer loop
      vertex -10.5 18.5 -40
      vertex -5.25 27.5933 -40
      vertex -10.5 18.5 -30
    endloop
  endfacet
  facet normal 0.866025 0.5 0
    outer loop
      vertex -10.5 18.5 -30
      vertex -5.25 9.40673 -30
      vertex -5.25 9.40673 -40
    endloop
  endfacet
  facet normal 0.866025 0.5 0
    outer loop
      vertex -10.5 18.5 -40
      vertex -10.5 18.5 -30
      vertex -5.25 9.40673 -40
    endloop
  endfacet
  facet normal 0 -1 0
    outer loop
      vertex 5.25 27.5933 -40
      vertex 5.25 27.5933 -30
      vertex -5.25 27.5933 -30
    endloop
  endfacet
  facet normal 0 -1 0
    outer loop
      vertex -5.25 27.5933 -40
      vertex 5.25 27.5933 -40
      vertex -5.25 27.5933 -30
    endloop
  endfacet
  facet normal -0.866025 -0.5 0
    outer loop
      vertex 10.5 18.5 -30
      vertex 5.25 27.5933 -30
      vertex 10.5 18.5 -40
    endloop
  endfacet
  facet normal -0.866025 -0.5 0
    outer loop
      vertex 10.5 18.5 -40
      vertex 5.25 27.5933 -30
      vertex 5.25 27.5933 -40
    endloop
  endfacet
  facet normal -0.866025 0.5 0
    outer loop
      vertex 10.5 18.5 -30
      vertex 10.5 18.5 -40
      vertex 5.25 9.40673 -30
    endloop
  endfacet
  facet normal -0.866025 0.5 0
    outer loop
      vertex 5.25 9.40673 -30
      vertex 10.5 18.5 -40
      vertex 5.25 9.40673 -40
    endloop
  endfacet
  facet normal 0 1 0
    outer loop
      vertex 5.25 9.40673 -30
      vertex 5.25 9.40673 -40
      vertex -5.25 9.40673 -30
    endloop
  endfacet
  facet normal 0 1 0
    outer loop
      vertex -5.25 9.40673 -30
      vertex 5.25 9.40673 -40
      vertex -5.25 9.40673 -40
    endloop
  endfacet
  facet normal 0.994522 -0.104528 0
    outer loop
      vertex 31.0294 20.6831 -40
      vertex 31.0294 20.6831 -9
      vertex 30.8 18.5 -9
    endloop
  endfacet
  facet normal 0.994522 -0.104528 0
    outer loop
      vertex 30.8 18.5 -40
      vertex 31.0294 20.6831 -40
      vertex 30.8 18.5 -9
    endloop
  endfacet
  facet normal 0.994522 0.104528 0
    outer loop
      vertex 30.8 18.5 -9
      vertex 31.0294 16.3169 -9
      vertex 31.0294 16.3169 -40
    endloop
  endfacet
  facet normal 0.994522 0.104528 0
    outer loop
      vertex 30.8 18.5 -40
      vertex 30.8 18.5 -9
      vertex 31.0294 16.3169 -40
    endloop
  endfacet
  facet normal 0.951056 -0.309017 0
    outer loop
      vertex 31.7078 22.7707 -40
      vertex 31.7078 22.7707 -9
      vertex 31.0294 20.6831 -9
    endloop
  endfacet
  facet normal 0.951056 -0.309017 0
    outer loop
      vertex 31.0294 20.6831 -40
      vertex 31.7078 22.7707 -40
      vertex 31.0294 20.6831 -9
    endloop
  endfacet
  facet normal 0.866025 -0.5 0
    outer loop
      vertex 32.8053 24.6717 -40
      vertex 32.8053 24.6717 -9
      vertex 31.7078 22.7707 -9
    endloop
  endfacet
  facet normal 0.866025 -0.5 0
    outer loop
      vertex 31.7078 22.7707 -40
      vertex 32.8053 24.6717 -40
      vertex 31.7078 22.7707 -9
    endloop
  endfacet
  facet normal 0.743145 -0.66913 0
    outer loop
      vertex 34.2741 26.303 -40
      vertex 34.2741 26.303 -9
      vertex 32.8053 24.6717 -9
    endloop
  endfacet
  facet normal 0.743145 -0.66913 0
    outer loop
      vertex 32.8053 24.6717 -40
      vertex 34.2741 26.303 -40
      vertex 32.8053 24.6717 -9
    endloop
  endfacet
  facet normal 0.587785 -0.809017 0
    outer loop
      vertex 36.05 27.5933 -40
      vertex 36.05 27.5933 -9
      vertex 34.2741 26.303 -9
    endloop
  endfacet
  facet normal 0.587785 -0.809017 0
    outer loop
      vertex 34.2741 26.303 -40
      vertex 36.05 27.5933 -40
      vertex 34.2741 26.303 -9
    endloop
  endfacet
  facet normal 0.406736 -0.913546 0
    outer loop
      vertex 38.0553 28.4861 -40
      vertex 38.0553 28.4861 -9
      vertex 36.05 27.5933 -9
    endloop
  endfacet
  facet normal 0.406736 -0.913546 0
    outer loop
      vertex 36.05 27.5933 -40
      vertex 38.0553 28.4861 -40
      vertex 36.05 27.5933 -9
    endloop
  endfacet
  facet normal 0.207912 -0.978148 0
    outer loop
      vertex 40.2025 28.9425 -40
      vertex 40.2025 28.9425 -9
      vertex 38.0553 28.4861 -9
    endloop
  endfacet
  facet normal 0.207912 -0.978148 0
    outer loop
      vertex 38.0553 28.4861 -40
      vertex 40.2025 28.9425 -40
      vertex 38.0553 28.4861 -9
    endloop
  endfacet
  facet normal 0 -1 0
    outer loop
      vertex 42.3975 28.9425 -40
      vertex 42.3975 28.9425 -9
      vertex 40.2025 28.9425 -9
    endloop
  endfacet
  facet normal 0 -1 0
    outer loop
      vertex 40.2025 28.9425 -40
      vertex 42.3975 28.9425 -40
      vertex 40.2025 28.9425 -9
    endloop
  endfacet
  facet normal -0.207912 -0.978148 0
    outer loop
      vertex 44.5447 28.4861 -40
      vertex 44.5447 28.4861 -9
      vertex 42.3975 28.9425 -9
    endloop
  endfacet
  facet normal -0.207912 -0.978148 0
    outer loop
      vertex 42.3975 28.9425 -40
      vertex 44.5447 28.4861 -40
      vertex 42.3975 28.9425 -9
    endloop
  endfacet
  facet normal -0.406736 -0.913546 0
    outer loop
      vertex 46.55 27.5933 -40
      vertex 46.55 27.5933 -9
      vertex 44.5447 28.4861 -9
    endloop
  endfacet
  facet normal -0.406736 -0.913546 0
    outer loop
      vertex 44.5447 28.4861 -40
      vertex 46.55 27.5933 -40
      vertex 44.5447 28.4861 -9
    endloop
  endfacet
  facet normal -0.587785 -0.809017 0
    outer loop
      vertex 48.3259 26.303 -40
      vertex 48.3259 26.303 -9
      vertex 46.55 27.5933 -9
    endloop
  endfacet
  facet normal -0.587785 -0.809017 0
    outer loop
      vertex 46.55 27.5933 -40
      vertex 48.3259 26.303 -40
      vertex 46.55 27.5933 -9
    endloop
  endfacet
  facet normal -0.743145 -0.66913 0
    outer loop
      vertex 49.7947 24.6717 -9
      vertex 48.3259 26.303 -9
      vertex 49.7947 24.6717 -40
    endloop
  endfacet
  facet normal -0.743145 -0.66913 0
    outer loop
      vertex 49.7947 24.6717 -40
      vertex 48.3259 26.303 -9
      vertex 48.3259 26.303 -40
    endloop
  endfacet
  facet normal -0.866025 -0.5 0
    outer loop
      vertex 50.8922 22.7707 -9
      vertex 49.7947 24.6717 -9
      vertex 50.8922 22.7707 -40
    endloop
  endfacet
  facet normal -0.866025 -0.5 0
    outer loop
      vertex 50.8922 22.7707 -40
      vertex 49.7947 24.6717 -9
      vertex 49.7947 24.6717 -40
    endloop
  endfacet
  facet normal -0.951056 -0.309017 0
    outer loop
      vertex 51.5705 20.6831 -9
      vertex 50.8922 22.7707 -9
      vertex 51.5705 20.6831 -40
    endloop
  endfacet
  facet normal -0.951056 -0.309017 0
    outer loop
      vertex 51.5705 20.6831 -40
      vertex 50.8922 22.7707 -9
      vertex 50.8922 22.7707 -40
    endloop
  endfacet
  facet normal -0.994522 -0.104528 0
    outer loop
      vertex 51.8 18.5 -9
      vertex 51.5705 20.6831 -9
      vertex 51.8 18.5 -40
    endloop
  endfacet
  facet normal -0.994522 -0.104528 0
    outer loop
      vertex 51.8 18.5 -40
      vertex 51.5705 20.6831 -9
      vertex 51.5705 20.6831 -40
    endloop
  endfacet
  facet normal -0.994522 0.104528 0
    outer loop
      vertex 51.8 18.5 -9
      vertex 51.8 18.5 -40
      vertex 51.5705 16.3169 -9
    endloop
  endfacet
  facet normal -0.994522 0.104528 0
    outer loop
      vertex 51.5705 16.3169 -9
      vertex 51.8 18.5 -40
      vertex 51.5705 16.3169 -40
    endloop
  endfacet
  facet normal -0.951056 0.309017 0
    outer loop
      vertex 51.5705 16.3169 -9
      vertex 51.5705 16.3169 -40
      vertex 50.8922 14.2293 -9
    endloop
  endfacet
  facet normal -0.951056 0.309017 0
    outer loop
      vertex 50.8922 14.2293 -9
      vertex 51.5705 16.3169 -40
      vertex 50.8922 14.2293 -40
    endloop
  endfacet
  facet normal -0.866025 0.5 0
    outer loop
      vertex 50.8922 14.2293 -9
      vertex 50.8922 14.2293 -40
      vertex 49.7947 12.3283 -9
    endloop
  endfacet
  facet normal -0.866025 0.5 0
    outer loop
      vertex 49.7947 12.3283 -9
      vertex 50.8922 14.2293 -40
      vertex 49.7947 12.3283 -40
    endloop
  endfacet
  facet normal -0.743145 0.66913 0
    outer loop
      vertex 49.7947 12.3283 -9
      vertex 49.7947 12.3283 -40
      vertex 48.3259 10.697 -9
    endloop
  endfacet
  facet normal -0.743145 0.66913 0
    outer loop
      vertex 48.3259 10.697 -9
      vertex 49.7947 12.3283 -40
      vertex 48.3259 10.697 -40
    endloop
  endfacet
  facet normal -0.587785 0.809017 0
    outer loop
      vertex 48.3259 10.697 -9
      vertex 48.3259 10.697 -40
      vertex 46.55 9.40673 -9
    endloop
  endfacet
  facet normal -0.587785 0.809017 0
    outer loop
      vertex 46.55 9.40673 -9
      vertex 48.3259 10.697 -40
      vertex 46.55 9.40673 -40
    endloop
  endfacet
  facet normal -0.406736 0.913546 0
    outer loop
      vertex 46.55 9.40673 -9
      vertex 46.55 9.40673 -40
      vertex 44.5447 8.51391 -9
    endloop
  endfacet
  facet normal -0.406736 0.913546 0
    outer loop
      vertex 44.5447 8.51391 -9
      vertex 46.55 9.40673 -40
      vertex 44.5447 8.51391 -40
    endloop
  endfacet
  facet normal -0.207912 0.978148 0
    outer loop
      vertex 44.5447 8.51391 -9
      vertex 44.5447 8.51391 -40
      vertex 42.3975 8.05752 -9
    endloop
  endfacet
  facet normal -0.207912 0.978148 0
    outer loop
      vertex 42.3975 8.05752 -9
      vertex 44.5447 8.51391 -40
      vertex 42.3975 8.05752 -40
    endloop
  endfacet
  facet normal 0 1 0
    outer loop
      vertex 42.3975 8.05752 -9
      vertex 42.3975 8.05752 -40
      vertex 40.2025 8.05752 -9
    endloop
  endfacet
  facet normal 0 1 0
    outer loop
      vertex 40.2025 8.05752 -9
      vertex 42.3975 8.05752 -40
      vertex 40.2025 8.05752 -40
    endloop
  endfacet
  facet normal 0.207912 0.978148 0
    outer loop
      vertex 40.2025 8.05752 -9
      vertex 40.2025 8.05752 -40
      vertex 38.0553 8.51391 -9
    endloop
  endfacet
  facet normal 0.207912 0.978148 0
    outer loop
      vertex 38.0553 8.51391 -9
      vertex 40.2025 8.05752 -40
      vertex 38.0553 8.51391 -40
    endloop
  endfacet
  facet normal 0.406736 0.913546 0
    outer loop
      vertex 38.0553 8.51391 -9
      vertex 38.0553 8.51391 -40
      vertex 36.05 9.40673 -9
    endloop
  endfacet
  facet normal 0.406736 0.913546 0
    outer loop
      vertex 36.05 9.40673 -9
      vertex 38.0553 8.51391 -40
      vertex 36.05 9.40673 -40
    endloop
  endfacet
  facet normal 0.587785 0.809017 0
    outer loop
      vertex 36.05 9.40673 -9
      vertex 36.05 9.40673 -40
      vertex 34.2741 10.697 -9
    endloop
  endfacet
  facet normal 0.587785 0.809017 0
    outer loop
      vertex 34.2741 10.697 -9
      vertex 36.05 9.40673 -40
      vertex 34.2741 10.697 -40
    endloop
  endfacet
  facet normal 0.743145 0.66913 0
    outer loop
      vertex 32.8053 12.3283 -9
      vertex 34.2741 10.697 -9
      vertex 34.2741 10.697 -40
    endloop
  endfacet
  facet normal 0.743145 0.66913 0
    outer loop
      vertex 32.8053 12.3283 -40
      vertex 32.8053 12.3283 -9
      vertex 34.2741 10.697 -40
    endloop
  endfacet
  facet normal 0.866025 0.5 0
    outer loop
      vertex 31.7078 14.2293 -9
      vertex 32.8053 12.3283 -9
      vertex 32.8053 12.3283 -40
    endloop
  endfacet
  facet normal 0.866025 0.5 0
    outer loop
      vertex 31.7078 14.2293 -40
      vertex 31.7078 14.2293 -9
      vertex 32.8053 12.3283 -40
    endloop
  endfacet
  facet normal 0.951056 0.309017 0
    outer loop
      vertex 31.0294 16.3169 -9
      vertex 31.7078 14.2293 -9
      vertex 31.7078 14.2293 -40
    endloop
  endfacet
  facet normal 0.951056 0.309017 0
    outer loop
      vertex 31.0294 16.3169 -40
      vertex 31.0294 16.3169 -9
      vertex 31.7078 14.2293 -40
    endloop
  endfacet
  facet normal -1 0 0
    outer loop
      vertex 26.3 4.5 9
      vertex 26.3 4.5 16.1074
      vertex 26.3 32.5 9
    endloop
  endfacet
  facet normal -1 0 0
    outer loop
      vertex 26.3 32.5 9
      vertex 26.3 4.5 16.1074
      vertex 26.3 6 16.1074
    endloop
  endfacet
  facet normal -1 0 0
    outer loop
      vertex 26.3 32.5 9
      vertex 26.3 6 16.1074
      vertex 26.3 6 40
    endloop
  endfacet
  facet normal -1 0 0
    outer loop
      vertex 26.3 32.5 9
      vertex 26.3 6 40
      vertex 26.3 32.5 40
    endloop
  endfacet
  facet normal 0 0 -1
    outer loop
      vertex 26.3 4.5 9
      vertex 26.3 32.5 9
      vertex 29.4925 4.5 9
    endloop
  endfacet
  facet normal 0 0 -1
    outer loop
      vertex 44.5447 28.4861 9
      vertex 26.3 32.5 9
      vertex 52.3 32.5 9
    endloop
  endfacet
  facet normal 0 0 -1
    outer loop
      vertex 51.8 18.5 9
      vertex 52.3 32.5 9
      vertex 52.3 6 9
    endloop
  endfacet
  facet normal 0 0 -1
    outer loop
      vertex 29.4925 4.5 9
      vertex 26.3 32.5 9
      vertex 29.4925 6 9
    endloop
  endfacet
  facet normal 0 0 -1
    outer loop
      vertex 42.3975 8.05752 9
      vertex 52.3 6 9
      vertex 40.2025 8.05752 9
    endloop
  endfacet
  facet normal 0 0 -1
    outer loop
      vertex 29.4925 6 9
      vertex 26.3 32.5 9
      vertex 30.8 18.5 9
    endloop
  endfacet
  facet normal 0 0 -1
    outer loop
      vertex 29.4925 6 9
      vertex 30.8 18.5 9
      vertex 31.0294 16.3169 9
    endloop
  endfacet
  facet normal 0 0 -1
    outer loop
      vertex 29.4925 6 9
      vertex 31.0294 16.3169 9
      vertex 31.7078 14.2293 9
    endloop
  endfacet
  facet normal 0 0 -1
    outer loop
      vertex 29.4925 6 9
      vertex 31.7078 14.2293 9
      vertex 32.8053 12.3283 9
    endloop
  endfacet
  facet normal 0 0 -1
    outer loop
      vertex 34.2741 10.697 9
      vertex 29.4925 6 9
      vertex 32.8053 12.3283 9
    endloop
  endfacet
  facet normal 0 0 -1
    outer loop
      vertex 44.5447 8.51391 9
      vertex 52.3 6 9
      vertex 42.3975 8.05752 9
    endloop
  endfacet
  facet normal 0 0 -1
    outer loop
      vertex 46.55 27.5933 9
      vertex 52.3 32.5 9
      vertex 48.3259 26.303 9
    endloop
  endfacet
  facet normal 0 0 -1
    outer loop
      vertex 51.5705 20.6831 9
      vertex 52.3 32.5 9
      vertex 51.8 18.5 9
    endloop
  endfacet
  facet normal 0 0 -1
    outer loop
      vertex 48.3259 26.303 9
      vertex 52.3 32.5 9
      vertex 49.7947 24.6717 9
    endloop
  endfacet
  facet normal 0 0 -1
    outer loop
      vertex 44.5447 8.51391 9
      vertex 46.55 9.40673 9
      vertex 52.3 6 9
    endloop
  endfacet
  facet normal 0 0 -1
    outer loop
      vertex 46.55 9.40673 9
      vertex 48.3259 10.697 9
      vertex 52.3 6 9
    endloop
  endfacet
  facet normal 0 0 -1
    outer loop
      vertex 49.7947 24.6717 9
      vertex 52.3 32.5 9
      vertex 50.8922 22.7707 9
    endloop
  endfacet
  facet normal 0 0 -1
    outer loop
      vertex 48.3259 10.697 9
      vertex 49.7947 12.3283 9
      vertex 52.3 6 9
    endloop
  endfacet
  facet normal 0 0 -1
    outer loop
      vertex 49.7947 12.3283 9
      vertex 50.8922 14.2293 9
      vertex 52.3 6 9
    endloop
  endfacet
  facet normal 0 0 -1
    outer loop
      vertex 50.8922 22.7707 9
      vertex 52.3 32.5 9
      vertex 51.5705 20.6831 9
    endloop
  endfacet
  facet normal 0 0 -1
    outer loop
      vertex 50.8922 14.2293 9
      vertex 51.5705 16.3169 9
      vertex 52.3 6 9
    endloop
  endfacet
  facet normal 0 0 -1
    outer loop
      vertex 51.5705 16.3169 9
      vertex 51.8 18.5 9
      vertex 52.3 6 9
    endloop
  endfacet
  facet normal 0 0 -1
    outer loop
      vertex 44.5447 28.4861 9
      vertex 52.3 32.5 9
      vertex 46.55 27.5933 9
    endloop
  endfacet
  facet normal 0 0 -1
    outer loop
      vertex 42.3975 28.9425 9
      vertex 26.3 32.5 9
      vertex 44.5447 28.4861 9
    endloop
  endfacet
  facet normal 0 0 -1
    outer loop
      vertex 40.2025 28.9425 9
      vertex 26.3 32.5 9
      vertex 42.3975 28.9425 9
    endloop
  endfacet
  facet normal 0 0 -1
    outer loop
      vertex 38.0553 28.4861 9
      vertex 26.3 32.5 9
      vertex 40.2025 28.9425 9
    endloop
  endfacet
  facet normal 0 0 -1
    outer loop
      vertex 36.05 27.5933 9
      vertex 26.3 32.5 9
      vertex 38.0553 28.4861 9
    endloop
  endfacet
  facet normal 0 0 -1
    outer loop
      vertex 34.2741 26.303 9
      vertex 26.3 32.5 9
      vertex 36.05 27.5933 9
    endloop
  endfacet
  facet normal 0 0 -1
    outer loop
      vertex 32.8053 24.6717 9
      vertex 26.3 32.5 9
      vertex 34.2741 26.303 9
    endloop
  endfacet
  facet normal 0 0 -1
    outer loop
      vertex 31.7078 22.7707 9
      vertex 26.3 32.5 9
      vertex 32.8053 24.6717 9
    endloop
  endfacet
  facet normal 0 0 -1
    outer loop
      vertex 31.0294 20.6831 9
      vertex 26.3 32.5 9
      vertex 31.7078 22.7707 9
    endloop
  endfacet
  facet normal 0 0 -1
    outer loop
      vertex 30.8 18.5 9
      vertex 26.3 32.5 9
      vertex 31.0294 20.6831 9
    endloop
  endfacet
  facet normal 0 0 -1
    outer loop
      vertex 29.4925 6 9
      vertex 34.2741 10.697 9
      vertex 36.05 9.40673 9
    endloop
  endfacet
  facet normal 0 0 -1
    outer loop
      vertex 29.4925 6 9
      vertex 36.05 9.40673 9
      vertex 38.0553 8.51391 9
    endloop
  endfacet
  facet normal 0 0 -1
    outer loop
      vertex 29.4925 6 9
      vertex 38.0553 8.51391 9
      vertex 40.2025 8.05752 9
    endloop
  endfacet
  facet normal 0 0 -1
    outer loop
      vertex 29.4925 6 9
      vertex 40.2025 8.05752 9
      vertex 52.3 6 9
    endloop
  endfacet
  facet normal -1 0 0
    outer loop
      vertex 52.3 6 9
      vertex 52.3 32.5 9
      vertex 52.3 6 -9
    endloop
  endfacet
  facet normal -1 0 0
    outer loop
      vertex 52.3 6 -9
      vertex 52.3 32.5 9
      vertex 52.3 32.5 -9
    endloop
  endfacet
  facet normal 0 0 1
    outer loop
      vertex 26.3 32.5 -9
      vertex 26.3 4.5 -9
      vertex 29.4925 4.5 -9
    endloop
  endfacet
  facet normal 0 0 1
    outer loop
      vertex 31.0294 16.3169 -9
      vertex 26.3 32.5 -9
      vertex 29.4925 6 -9
    endloop
  endfacet
  facet normal 0 0 1
    outer loop
      vertex 29.4925 6 -9
      vertex 26.3 32.5 -9
      vertex 29.4925 4.5 -9
    endloop
  endfacet
  facet normal 0 0 1
    outer loop
      vertex 31.7078 14.2293 -9
      vertex 31.0294 16.3169 -9
      vertex 29.4925 6 -9
    endloop
  endfacet
  facet normal 0 0 1
    outer loop
      vertex 30.8 18.5 -9
      vertex 26.3 32.5 -9
      vertex 31.0294 16.3169 -9
    endloop
  endfacet
  facet normal 0 0 1
    outer loop
      vertex 42.3975 8.05752 -9
      vertex 40.2025 8.05752 -9
      vertex 29.4925 6 -9
    endloop
  endfacet
  facet normal 0 0 1
    outer loop
      vertex 31.0294 20.6831 -9
      vertex 26.3 32.5 -9
      vertex 30.8 18.5 -9
    endloop
  endfacet
  facet normal 0 0 1
    outer loop
      vertex 31.7078 22.7707 -9
      vertex 26.3 32.5 -9
      vertex 31.0294 20.6831 -9
    endloop
  endfacet
  facet normal 0 0 1
    outer loop
      vertex 32.8053 24.6717 -9
      vertex 26.3 32.5 -9
      vertex 31.7078 22.7707 -9
    endloop
  endfacet
  facet normal 0 0 1
    outer loop
      vertex 46.55 9.40673 -9
      vertex 44.5447 8.51391 -9
      vertex 52.3 6 -9
    endloop
  endfacet
  facet normal 0 0 1
    outer loop
      vertex 36.05 27.5933 -9
      vertex 26.3 32.5 -9
      vertex 34.2741 26.303 -9
    endloop
  endfacet
  facet normal 0 0 1
    outer loop
      vertex 51.8 18.5 -9
      vertex 51.5705 16.3169 -9
      vertex 52.3 6 -9
    endloop
  endfacet
  facet normal 0 0 1
    outer loop
      vertex 38.0553 28.4861 -9
      vertex 26.3 32.5 -9
      vertex 36.05 27.5933 -9
    endloop
  endfacet
  facet normal 0 0 1
    outer loop
      vertex 52.3 32.5 -9
      vertex 26.3 32.5 -9
      vertex 38.0553 28.4861 -9
    endloop
  endfacet
  facet normal 0 0 1
    outer loop
      vertex 51.5705 16.3169 -9
      vertex 50.8922 14.2293 -9
      vertex 52.3 6 -9
    endloop
  endfacet
  facet normal 0 0 1
    outer loop
      vertex 52.3 32.5 -9
      vertex 38.0553 28.4861 -9
      vertex 40.2025 28.9425 -9
    endloop
  endfacet
  facet normal 0 0 1
    outer loop
      vertex 49.7947 12.3283 -9
      vertex 48.3259 10.697 -9
      vertex 52.3 6 -9
    endloop
  endfacet
  facet normal 0 0 1
    outer loop
      vertex 52.3 32.5 -9
      vertex 42.3975 28.9425 -9
      vertex 44.5447 28.4861 -9
    endloop
  endfacet
  facet normal 0 0 1
    outer loop
      vertex 52.3 32.5 -9
      vertex 44.5447 28.4861 -9
      vertex 46.55 27.5933 -9
    endloop
  endfacet
  facet normal 0 0 1
    outer loop
      vertex 52.3 32.5 -9
      vertex 46.55 27.5933 -9
      vertex 48.3259 26.303 -9
    endloop
  endfacet
  facet normal 0 0 1
    outer loop
      vertex 52.3 32.5 -9
      vertex 48.3259 26.303 -9
      vertex 49.7947 24.6717 -9
    endloop
  endfacet
  facet normal 0 0 1
    outer loop
      vertex 52.3 32.5 -9
      vertex 49.7947 24.6717 -9
      vertex 50.8922 22.7707 -9
    endloop
  endfacet
  facet normal 0 0 1
    outer loop
      vertex 52.3 32.5 -9
      vertex 50.8922 22.7707 -9
      vertex 51.5705 20.6831 -9
    endloop
  endfacet
  facet normal 0 0 1
    outer loop
      vertex 52.3 32.5 -9
      vertex 51.8 18.5 -9
      vertex 52.3 6 -9
    endloop
  endfacet
  facet normal 0 0 1
    outer loop
      vertex 52.3 32.5 -9
      vertex 51.5705 20.6831 -9
      vertex 51.8 18.5 -9
    endloop
  endfacet
  facet normal 0 0 1
    outer loop
      vertex 52.3 6 -9
      vertex 42.3975 8.05752 -9
      vertex 29.4925 6 -9
    endloop
  endfacet
  facet normal 0 0 1
    outer loop
      vertex 52.3 6 -9
      vertex 44.5447 8.51391 -9
      vertex 42.3975 8.05752 -9
    endloop
  endfacet
  facet normal 0 0 1
    outer loop
      vertex 40.2025 8.05752 -9
      vertex 38.0553 8.51391 -9
      vertex 29.4925 6 -9
    endloop
  endfacet
  facet normal 0 0 1
    outer loop
      vertex 38.0553 8.51391 -9
      vertex 36.05 9.40673 -9
      vertex 29.4925 6 -9
    endloop
  endfacet
  facet normal 0 0 1
    outer loop
      vertex 36.05 9.40673 -9
      vertex 34.2741 10.697 -9
      vertex 29.4925 6 -9
    endloop
  endfacet
  facet normal 0 0 1
    outer loop
      vertex 34.2741 10.697 -9
      vertex 32.8053 12.3283 -9
      vertex 29.4925 6 -9
    endloop
  endfacet
  facet normal 0 0 1
    outer loop
      vertex 32.8053 12.3283 -9
      vertex 31.7078 14.2293 -9
      vertex 29.4925 6 -9
    endloop
  endfacet
  facet normal 0 0 1
    outer loop
      vertex 32.8053 24.6717 -9
      vertex 34.2741 26.303 -9
      vertex 26.3 32.5 -9
    endloop
  endfacet
  facet normal 0 0 1
    outer loop
      vertex 40.2025 28.9425 -9
      vertex 42.3975 28.9425 -9
      vertex 52.3 32.5 -9
    endloop
  endfacet
  facet normal 0 0 1
    outer loop
      vertex 50.8922 14.2293 -9
      vertex 49.7947 12.3283 -9
      vertex 52.3 6 -9
    endloop
  endfacet
  facet normal 0 0 1
    outer loop
      vertex 48.3259 10.697 -9
      vertex 46.55 9.40673 -9
      vertex 52.3 6 -9
    endloop
  endfacet
  facet normal -1 0 0
    outer loop
      vertex 26.3 4.5 -16.1074
      vertex 26.3 4.5 -9
      vertex 26.3 6 -16.1074
    endloop
  endfacet
  facet normal -1 0 0
    outer loop
      vertex 26.3 6 -16.1074
      vertex 26.3 4.5 -9
      vertex 26.3 32.5 -9
    endloop
  endfacet
  facet normal -1 0 0
    outer loop
      vertex 26.3 6 -16.1074
      vertex 26.3 32.5 -9
      vertex 26.3 32.5 -30
    endloop
  endfacet
  facet normal -1 0 0
    outer loop
      vertex 26.3 6 -16.1074
      vertex 26.3 32.5 -30
      vertex 26.3 6 -30
    endloop
  endfacet
  facet normal 0 0 1
    outer loop
      vertex 10.5 18.5 -30
      vertex 5.25 9.40673 -30
      vertex 26.3 6 -30
    endloop
  endfacet
  facet normal 0 0 1
    outer loop
      vertex -26.3 32.5 -30
      vertex -26.3 6 -30
      vertex -7.14607 6 -30
    endloop
  endfacet
  facet normal 0 0 1
    outer loop
      vertex -5.25 9.40673 -30
      vertex -26.3 32.5 -30
      vertex -7.14607 6 -30
    endloop
  endfacet
  facet normal 0 0 1
    outer loop
      vertex -7.14607 4.5 -30
      vertex 7.14607 4.5 -30
      vertex -7.14607 6 -30
    endloop
  endfacet
  facet normal 0 0 1
    outer loop
      vertex -10.5 18.5 -30
      vertex -5.25 27.5933 -30
      vertex -26.3 32.5 -30
    endloop
  endfacet
  facet normal 0 0 1
    outer loop
      vertex -5.25 27.5933 -30
      vertex 26.3 32.5 -30
      vertex -26.3 32.5 -30
    endloop
  endfacet
  facet normal 0 0 1
    outer loop
      vertex 7.14607 4.5 -30
      vertex -5.25 9.40673 -30
      vertex -7.14607 6 -30
    endloop
  endfacet
  facet normal 0 0 1
    outer loop
      vertex -10.5 18.5 -30
      vertex -26.3 32.5 -30
      vertex -5.25 9.40673 -30
    endloop
  endfacet
  facet normal 0 0 1
    outer loop
      vertex 5.25 27.5933 -30
      vertex 26.3 32.5 -30
      vertex -5.25 27.5933 -30
    endloop
  endfacet
  facet normal 0 0 1
    outer loop
      vertex 26.3 6 -30
      vertex 26.3 32.5 -30
      vertex 5.25 27.5933 -30
    endloop
  endfacet
  facet normal 0 0 1
    outer loop
      vertex 26.3 6 -30
      vertex 5.25 27.5933 -30
      vertex 10.5 18.5 -30
    endloop
  endfacet
  facet normal 0 0 1
    outer loop
      vertex 7.14607 6 -30
      vertex 26.3 6 -30
      vertex 5.25 9.40673 -30
    endloop
  endfacet
  facet normal 0 0 1
    outer loop
      vertex 5.25 9.40673 -30
      vertex 7.14607 4.5 -30
      vertex 7.14607 6 -30
    endloop
  endfacet
  facet normal 0 0 1
    outer loop
      vertex 5.25 9.40673 -30
      vertex -5.25 9.40673 -30
      vertex 7.14607 4.5 -30
    endloop
  endfacet
  facet normal 1 0 0
    outer loop
      vertex -26.3 32.5 -23
      vertex -26.3 6 -23
      vertex -26.3 6 -30
    endloop
  endfacet
  facet normal 1 0 0
    outer loop
      vertex -26.3 32.5 -30
      vertex -26.3 32.5 -23
      vertex -26.3 6 -30
    endloop
  endfacet
  facet normal 0 -1 0
    outer loop
      vertex 7.14607 4.5 -30
      vertex -7.14607 4.5 -30
      vertex -3.24038 4.5 -30.8302
    endloop
  endfacet
  facet normal 0 -1 0
    outer loop
      vertex 3.24038 4.5 -30.8302
      vertex 7.14607 4.5 -30
      vertex -3.24038 4.5 -30.8302
    endloop
  endfacet
  facet normal 0 1 2.22045e-016
    outer loop
      vertex 7.14607 6 -30
      vertex 9.57953 6 -29.4828
      vertex 26.3 6 -30
    endloop
  endfacet
  facet normal 0 1 2.22045e-016
    outer loop
      vertex 26.3 6 -30
      vertex 9.57953 6 -29.4828
      vertex 15.5 6 -26.8468
    endloop
  endfacet
  facet normal 0 1 2.22045e-016
    outer loop
      vertex 15.5 6 -26.8468
      vertex 20.743 6 -23.0375
      vertex 26.3 6 -30
    endloop
  endfacet
  facet normal 0 1 2.22045e-016
    outer loop
      vertex 20.743 6 -23.0375
      vertex 25.0795 6 -18.2213
      vertex 26.3 6 -30
    endloop
  endfacet
  facet normal 0 1 2.22045e-016
    outer loop
      vertex 25.0795 6 -18.2213
      vertex 26.3 6 -16.1074
      vertex 26.3 6 -30
    endloop
  endfacet
  facet normal 0 -1 0
    outer loop
      vertex 26.3 4.5 -9
      vertex 26.3 4.5 -16.1074
      vertex 28.3199 4.5 -12.6088
    endloop
  endfacet
  facet normal 0 -1 0
    outer loop
      vertex 29.4925 4.5 -9
      vertex 26.3 4.5 -9
      vertex 28.3199 4.5 -12.6088
    endloop
  endfacet
  facet normal 0 1 2.22045e-016
    outer loop
      vertex 29.4925 6 -9
      vertex 30.3226 6 -6.44526
      vertex 52.3 6 -9
    endloop
  endfacet
  facet normal 0 1 2.22045e-016
    outer loop
      vertex 52.3 6 -9
      vertex 30.3226 6 -6.44526
      vertex 31 6 1.33227e-015
    endloop
  endfacet
  facet normal 0 1 2.22045e-016
    outer loop
      vertex 31 6 1.33227e-015
      vertex 30.3226 6 6.44526
      vertex 52.3 6 -9
    endloop
  endfacet
  facet normal 0 1 2.22045e-016
    outer loop
      vertex 30.3226 6 6.44526
      vertex 29.4925 6 9
      vertex 52.3 6 -9
    endloop
  endfacet
  facet normal 0 1 2.22045e-016
    outer loop
      vertex 52.3 6 -9
      vertex 29.4925 6 9
      vertex 52.3 6 9
    endloop
  endfacet
  facet normal 0 -1 0
    outer loop
      vertex 26.3 4.5 16.1074
      vertex 26.3 4.5 9
      vertex 29.4925 4.5 9
    endloop
  endfacet
  facet normal 0 -1 0
    outer loop
      vertex 28.3199 4.5 12.6088
      vertex 26.3 4.5 16.1074
      vertex 29.4925 4.5 9
    endloop
  endfacet
  facet normal 0.994522 0.104528 0
    outer loop
      vertex 30.8 18.5 40
      vertex 31.0294 16.3169 40
      vertex 31.0294 16.3169 9
    endloop
  endfacet
  facet normal 0.994522 0.104528 0
    outer loop
      vertex 30.8 18.5 9
      vertex 30.8 18.5 40
      vertex 31.0294 16.3169 9
    endloop
  endfacet
  facet normal 0.951056 0.309017 0
    outer loop
      vertex 31.0294 16.3169 40
      vertex 31.7078 14.2293 40
      vertex 31.7078 14.2293 9
    endloop
  endfacet
  facet normal 0.951056 0.309017 0
    outer loop
      vertex 31.0294 16.3169 9
      vertex 31.0294 16.3169 40
      vertex 31.7078 14.2293 9
    endloop
  endfacet
  facet normal 0.866025 0.5 0
    outer loop
      vertex 31.7078 14.2293 40
      vertex 32.8053 12.3283 40
      vertex 32.8053 12.3283 9
    endloop
  endfacet
  facet normal 0.866025 0.5 0
    outer loop
      vertex 31.7078 14.2293 9
      vertex 31.7078 14.2293 40
      vertex 32.8053 12.3283 9
    endloop
  endfacet
  facet normal 0.743145 0.66913 0
    outer loop
      vertex 32.8053 12.3283 40
      vertex 34.2741 10.697 40
      vertex 34.2741 10.697 9
    endloop
  endfacet
  facet normal 0.743145 0.66913 0
    outer loop
      vertex 32.8053 12.3283 9
      vertex 32.8053 12.3283 40
      vertex 34.2741 10.697 9
    endloop
  endfacet
  facet normal 0.587785 0.809017 0
    outer loop
      vertex 36.05 9.40673 40
      vertex 36.05 9.40673 9
      vertex 34.2741 10.697 40
    endloop
  endfacet
  facet normal 0.587785 0.809017 0
    outer loop
      vertex 34.2741 10.697 40
      vertex 36.05 9.40673 9
      vertex 34.2741 10.697 9
    endloop
  endfacet
  facet normal 0.406736 0.913546 0
    outer loop
      vertex 38.0553 8.51391 40
      vertex 38.0553 8.51391 9
      vertex 36.05 9.40673 40
    endloop
  endfacet
  facet normal 0.406736 0.913546 0
    outer loop
      vertex 36.05 9.40673 40
      vertex 38.0553 8.51391 9
      vertex 36.05 9.40673 9
    endloop
  endfacet
  facet normal 0.207912 0.978148 0
    outer loop
      vertex 40.2025 8.05752 40
      vertex 40.2025 8.05752 9
      vertex 38.0553 8.51391 40
    endloop
  endfacet
  facet normal 0.207912 0.978148 0
    outer loop
      vertex 38.0553 8.51391 40
      vertex 40.2025 8.05752 9
      vertex 38.0553 8.51391 9
    endloop
  endfacet
  facet normal 0 1 0
    outer loop
      vertex 42.3975 8.05752 40
      vertex 42.3975 8.05752 9
      vertex 40.2025 8.05752 40
    endloop
  endfacet
  facet normal 0 1 0
    outer loop
      vertex 40.2025 8.05752 40
      vertex 42.3975 8.05752 9
      vertex 40.2025 8.05752 9
    endloop
  endfacet
  facet normal -0.207912 0.978148 0
    outer loop
      vertex 44.5447 8.51391 40
      vertex 44.5447 8.51391 9
      vertex 42.3975 8.05752 40
    endloop
  endfacet
  facet normal -0.207912 0.978148 0
    outer loop
      vertex 42.3975 8.05752 40
      vertex 44.5447 8.51391 9
      vertex 42.3975 8.05752 9
    endloop
  endfacet
  facet normal -0.406736 0.913546 0
    outer loop
      vertex 46.55 9.40673 40
      vertex 46.55 9.40673 9
      vertex 44.5447 8.51391 40
    endloop
  endfacet
  facet normal -0.406736 0.913546 0
    outer loop
      vertex 44.5447 8.51391 40
      vertex 46.55 9.40673 9
      vertex 44.5447 8.51391 9
    endloop
  endfacet
  facet normal -0.587785 0.809017 0
    outer loop
      vertex 48.3259 10.697 40
      vertex 48.3259 10.697 9
      vertex 46.55 9.40673 40
    endloop
  endfacet
  facet normal -0.587785 0.809017 0
    outer loop
      vertex 46.55 9.40673 40
      vertex 48.3259 10.697 9
      vertex 46.55 9.40673 9
    endloop
  endfacet
  facet normal -0.743145 0.66913 0
    outer loop
      vertex 49.7947 12.3283 40
      vertex 49.7947 12.3283 9
      vertex 48.3259 10.697 40
    endloop
  endfacet
  facet normal -0.743145 0.66913 0
    outer loop
      vertex 48.3259 10.697 40
      vertex 49.7947 12.3283 9
      vertex 48.3259 10.697 9
    endloop
  endfacet
  facet normal -0.866025 0.5 0
    outer loop
      vertex 50.8922 14.2293 40
      vertex 50.8922 14.2293 9
      vertex 49.7947 12.3283 40
    endloop
  endfacet
  facet normal -0.866025 0.5 0
    outer loop
      vertex 49.7947 12.3283 40
      vertex 50.8922 14.2293 9
      vertex 49.7947 12.3283 9
    endloop
  endfacet
  facet normal -0.951056 0.309017 0
    outer loop
      vertex 51.5705 16.3169 40
      vertex 51.5705 16.3169 9
      vertex 50.8922 14.2293 40
    endloop
  endfacet
  facet normal -0.951056 0.309017 0
    outer loop
      vertex 50.8922 14.2293 40
      vertex 51.5705 16.3169 9
      vertex 50.8922 14.2293 9
    endloop
  endfacet
  facet normal -0.994522 0.104528 0
    outer loop
      vertex 51.8 18.5 40
      vertex 51.8 18.5 9
      vertex 51.5705 16.3169 40
    endloop
  endfacet
  facet normal -0.994522 0.104528 0
    outer loop
      vertex 51.5705 16.3169 40
      vertex 51.8 18.5 9
      vertex 51.5705 16.3169 9
    endloop
  endfacet
  facet normal -0.994522 -0.104528 0
    outer loop
      vertex 51.8 18.5 40
      vertex 51.5705 20.6831 40
      vertex 51.8 18.5 9
    endloop
  endfacet
  facet normal -0.994522 -0.104528 0
    outer loop
      vertex 51.8 18.5 9
      vertex 51.5705 20.6831 40
      vertex 51.5705 20.6831 9
    endloop
  endfacet
  facet normal -0.951056 -0.309017 0
    outer loop
      vertex 51.5705 20.6831 40
      vertex 50.8922 22.7707 40
      vertex 51.5705 20.6831 9
    endloop
  endfacet
  facet normal -0.951056 -0.309017 0
    outer loop
      vertex 51.5705 20.6831 9
      vertex 50.8922 22.7707 40
      vertex 50.8922 22.7707 9
    endloop
  endfacet
  facet normal -0.866025 -0.5 0
    outer loop
      vertex 50.8922 22.7707 40
      vertex 49.7947 24.6717 40
      vertex 50.8922 22.7707 9
    endloop
  endfacet
  facet normal -0.866025 -0.5 0
    outer loop
      vertex 50.8922 22.7707 9
      vertex 49.7947 24.6717 40
      vertex 49.7947 24.6717 9
    endloop
  endfacet
  facet normal -0.743145 -0.66913 0
    outer loop
      vertex 49.7947 24.6717 40
      vertex 48.3259 26.303 40
      vertex 49.7947 24.6717 9
    endloop
  endfacet
  facet normal -0.743145 -0.66913 0
    outer loop
      vertex 49.7947 24.6717 9
      vertex 48.3259 26.303 40
      vertex 48.3259 26.303 9
    endloop
  endfacet
  facet normal -0.587785 -0.809017 0
    outer loop
      vertex 48.3259 26.303 9
      vertex 48.3259 26.303 40
      vertex 46.55 27.5933 40
    endloop
  endfacet
  facet normal -0.587785 -0.809017 0
    outer loop
      vertex 46.55 27.5933 9
      vertex 48.3259 26.303 9
      vertex 46.55 27.5933 40
    endloop
  endfacet
  facet normal -0.406736 -0.913546 0
    outer loop
      vertex 46.55 27.5933 9
      vertex 46.55 27.5933 40
      vertex 44.5447 28.4861 40
    endloop
  endfacet
  facet normal -0.406736 -0.913546 0
    outer loop
      vertex 44.5447 28.4861 9
      vertex 46.55 27.5933 9
      vertex 44.5447 28.4861 40
    endloop
  endfacet
  facet normal -0.207912 -0.978148 0
    outer loop
      vertex 44.5447 28.4861 9
      vertex 44.5447 28.4861 40
      vertex 42.3975 28.9425 40
    endloop
  endfacet
  facet normal -0.207912 -0.978148 0
    outer loop
      vertex 42.3975 28.9425 9
      vertex 44.5447 28.4861 9
      vertex 42.3975 28.9425 40
    endloop
  endfacet
  facet normal 0 -1 0
    outer loop
      vertex 42.3975 28.9425 9
      vertex 42.3975 28.9425 40
      vertex 40.2025 28.9425 40
    endloop
  endfacet
  facet normal 0 -1 0
    outer loop
      vertex 40.2025 28.9425 9
      vertex 42.3975 28.9425 9
      vertex 40.2025 28.9425 40
    endloop
  endfacet
  facet normal 0.207912 -0.978148 0
    outer loop
      vertex 40.2025 28.9425 9
      vertex 40.2025 28.9425 40
      vertex 38.0553 28.4861 40
    endloop
  endfacet
  facet normal 0.207912 -0.978148 0
    outer loop
      vertex 38.0553 28.4861 9
      vertex 40.2025 28.9425 9
      vertex 38.0553 28.4861 40
    endloop
  endfacet
  facet normal 0.406736 -0.913546 0
    outer loop
      vertex 38.0553 28.4861 9
      vertex 38.0553 28.4861 40
      vertex 36.05 27.5933 40
    endloop
  endfacet
  facet normal 0.406736 -0.913546 0
    outer loop
      vertex 36.05 27.5933 9
      vertex 38.0553 28.4861 9
      vertex 36.05 27.5933 40
    endloop
  endfacet
  facet normal 0.587785 -0.809017 0
    outer loop
      vertex 36.05 27.5933 9
      vertex 36.05 27.5933 40
      vertex 34.2741 26.303 40
    endloop
  endfacet
  facet normal 0.587785 -0.809017 0
    outer loop
      vertex 34.2741 26.303 9
      vertex 36.05 27.5933 9
      vertex 34.2741 26.303 40
    endloop
  endfacet
  facet normal 0.743145 -0.66913 0
    outer loop
      vertex 34.2741 26.303 9
      vertex 34.2741 26.303 40
      vertex 32.8053 24.6717 40
    endloop
  endfacet
  facet normal 0.743145 -0.66913 0
    outer loop
      vertex 32.8053 24.6717 9
      vertex 34.2741 26.303 9
      vertex 32.8053 24.6717 40
    endloop
  endfacet
  facet normal 0.866025 -0.5 0
    outer loop
      vertex 32.8053 24.6717 9
      vertex 32.8053 24.6717 40
      vertex 31.7078 22.7707 40
    endloop
  endfacet
  facet normal 0.866025 -0.5 0
    outer loop
      vertex 31.7078 22.7707 9
      vertex 32.8053 24.6717 9
      vertex 31.7078 22.7707 40
    endloop
  endfacet
  facet normal 0.951056 -0.309017 0
    outer loop
      vertex 31.7078 22.7707 9
      vertex 31.7078 22.7707 40
      vertex 31.0294 20.6831 40
    endloop
  endfacet
  facet normal 0.951056 -0.309017 0
    outer loop
      vertex 31.0294 20.6831 9
      vertex 31.7078 22.7707 9
      vertex 31.0294 20.6831 40
    endloop
  endfacet
  facet normal 0.994522 -0.104528 0
    outer loop
      vertex 31.0294 20.6831 9
      vertex 31.0294 20.6831 40
      vertex 30.8 18.5 40
    endloop
  endfacet
  facet normal 0.994522 -0.104528 0
    outer loop
      vertex 30.8 18.5 9
      vertex 31.0294 20.6831 9
      vertex 30.8 18.5 40
    endloop
  endfacet
endsolid OpenSCAD_Model
